# MagicaVoxel @ Ephtracy

# material
mtllib frying_pan.mtl
usemtl palette

# normals
vn -1 0 0
vn 1 0 0
vn 0 0 1
vn 0 0 -1
vn 0 -1 0
vn 0 1 0

# texcoords
vt 0.0683594 0.5
vt 0.986328 0.5

# verts
v -6.5 1 0.5
v -6.5 1 -11.5
v -6.5 3 0.5
v -6.5 3 -11.5
v -5.5 0 -0.5
v -5.5 0 -10.5
v -5.5 1 -0.5
v -5.5 1 -10.5
v -1.5 1 11.5
v -1.5 1 2.5
v -1.5 1 0.5
v -1.5 2 1.5
v -1.5 2 0.5
v -1.5 3 11.5
v -1.5 3 2.5
v -1.5 3 1.5
v -0.5 2 1.5
v -0.5 2 0.5
v -0.5 3 1.5
v -0.5 3 0.5
v 5.5 1 -0.5
v 5.5 1 -10.5
v 5.5 3 -0.5
v 5.5 3 -10.5
v -5.5 1 -0.5
v -5.5 1 -10.5
v -5.5 3 -0.5
v -5.5 3 -10.5
v 0.5 2 1.5
v 0.5 2 0.5
v 0.5 3 1.5
v 0.5 3 0.5
v 1.5 1 11.5
v 1.5 1 2.5
v 1.5 1 0.5
v 1.5 2 1.5
v 1.5 2 0.5
v 1.5 3 11.5
v 1.5 3 2.5
v 1.5 3 1.5
v 5.5 0 -0.5
v 5.5 0 -10.5
v 5.5 1 -0.5
v 5.5 1 -10.5
v 6.5 1 0.5
v 6.5 1 -11.5
v 6.5 3 0.5
v 6.5 3 -11.5
v -1.5 1 11.5
v -1.5 3 11.5
v 1.5 1 11.5
v 1.5 3 11.5
v -6.5 1 0.5
v -6.5 3 0.5
v -1.5 1 0.5
v -1.5 2 0.5
v -0.5 2 0.5
v -0.5 3 0.5
v 0.5 2 0.5
v 0.5 3 0.5
v 1.5 1 0.5
v 1.5 2 0.5
v 6.5 1 0.5
v 6.5 3 0.5
v -5.5 0 -0.5
v -5.5 1 -0.5
v 5.5 0 -0.5
v 5.5 1 -0.5
v -5.5 1 -10.5
v -5.5 3 -10.5
v 5.5 1 -10.5
v 5.5 3 -10.5
v -1.5 2 1.5
v -1.5 3 1.5
v -0.5 2 1.5
v -0.5 3 1.5
v 0.5 2 1.5
v 0.5 3 1.5
v 1.5 2 1.5
v 1.5 3 1.5
v -5.5 1 -0.5
v -5.5 3 -0.5
v 5.5 1 -0.5
v 5.5 3 -0.5
v -5.5 0 -10.5
v -5.5 1 -10.5
v 5.5 0 -10.5
v 5.5 1 -10.5
v -6.5 1 -11.5
v -6.5 3 -11.5
v 6.5 1 -11.5
v 6.5 3 -11.5
v -5.5 0 -0.5
v 5.5 0 -0.5
v -5.5 0 -10.5
v 5.5 0 -10.5
v -1.5 1 11.5
v 1.5 1 11.5
v -1.5 1 2.5
v 1.5 1 2.5
v -6.5 1 0.5
v -1.5 1 0.5
v 1.5 1 0.5
v 6.5 1 0.5
v -5.5 1 -0.5
v 5.5 1 -0.5
v -5.5 1 -10.5
v 5.5 1 -10.5
v -6.5 1 -11.5
v 6.5 1 -11.5
v -5.5 1 -0.5
v 5.5 1 -0.5
v -5.5 1 -10.5
v 5.5 1 -10.5
v -1.5 2 1.5
v -0.5 2 1.5
v 0.5 2 1.5
v 1.5 2 1.5
v -1.5 2 0.5
v -0.5 2 0.5
v 0.5 2 0.5
v 1.5 2 0.5
v -1.5 3 11.5
v 1.5 3 11.5
v -1.5 3 2.5
v 1.5 3 2.5
v -1.5 3 1.5
v -0.5 3 1.5
v 0.5 3 1.5
v 1.5 3 1.5
v -6.5 3 0.5
v -0.5 3 0.5
v 0.5 3 0.5
v 6.5 3 0.5
v -5.5 3 -0.5
v 5.5 3 -0.5
v -5.5 3 -10.5
v 5.5 3 -10.5
v -6.5 3 -11.5
v 6.5 3 -11.5

# faces
f 3/2/1 2/2/1 1/2/1
f 4/2/1 2/2/1 3/2/1
f 7/2/1 6/2/1 5/2/1
f 8/2/1 6/2/1 7/2/1
f 12/2/1 11/2/1 10/2/1
f 13/2/1 11/2/1 12/2/1
f 14/1/1 10/1/1 9/1/1
f 15/2/1 12/2/1 10/2/1
f 15/1/1 10/1/1 14/1/1
f 16/2/1 12/2/1 15/2/1
f 19/2/1 18/2/1 17/2/1
f 20/2/1 18/2/1 19/2/1
f 23/2/1 22/2/1 21/2/1
f 24/2/1 22/2/1 23/2/1
f 25/2/2 26/2/2 27/2/2
f 27/2/2 26/2/2 28/2/2
f 29/2/2 30/2/2 31/2/2
f 31/2/2 30/2/2 32/2/2
f 34/2/2 35/2/2 36/2/2
f 36/2/2 35/2/2 37/2/2
f 33/1/2 34/1/2 38/1/2
f 34/2/2 36/2/2 39/2/2
f 38/1/2 34/1/2 39/1/2
f 39/2/2 36/2/2 40/2/2
f 41/2/2 42/2/2 43/2/2
f 43/2/2 42/2/2 44/2/2
f 45/2/2 46/2/2 47/2/2
f 47/2/2 46/2/2 48/2/2
f 51/1/3 50/1/3 49/1/3
f 52/1/3 50/1/3 51/1/3
f 55/2/3 54/2/3 53/2/3
f 56/2/3 54/2/3 55/2/3
f 57/2/3 54/2/3 56/2/3
f 58/2/3 54/2/3 57/2/3
f 62/2/3 60/2/3 59/2/3
f 63/2/3 62/2/3 61/2/3
f 64/2/3 60/2/3 62/2/3
f 64/2/3 62/2/3 63/2/3
f 67/2/3 66/2/3 65/2/3
f 68/2/3 66/2/3 67/2/3
f 71/2/3 70/2/3 69/2/3
f 72/2/3 70/2/3 71/2/3
f 73/2/4 74/2/4 75/2/4
f 75/2/4 74/2/4 76/2/4
f 77/2/4 78/2/4 79/2/4
f 79/2/4 78/2/4 80/2/4
f 81/2/4 82/2/4 83/2/4
f 83/2/4 82/2/4 84/2/4
f 85/2/4 86/2/4 87/2/4
f 87/2/4 86/2/4 88/2/4
f 89/2/4 90/2/4 91/2/4
f 91/2/4 90/2/4 92/2/4
f 95/2/5 94/2/5 93/2/5
f 96/2/5 94/2/5 95/2/5
f 99/1/5 98/1/5 97/1/5
f 100/1/5 98/1/5 99/1/5
f 102/2/5 100/2/5 99/2/5
f 103/2/5 100/2/5 102/2/5
f 105/2/5 103/2/5 102/2/5
f 105/2/5 104/2/5 103/2/5
f 105/2/5 102/2/5 101/2/5
f 106/2/5 104/2/5 105/2/5
f 107/2/5 105/2/5 101/2/5
f 108/2/5 104/2/5 106/2/5
f 109/2/5 107/2/5 101/2/5
f 109/2/5 108/2/5 107/2/5
f 110/2/5 104/2/5 108/2/5
f 110/2/5 108/2/5 109/2/5
f 111/2/6 112/2/6 113/2/6
f 113/2/6 112/2/6 114/2/6
f 115/2/6 116/2/6 119/2/6
f 119/2/6 116/2/6 120/2/6
f 117/2/6 118/2/6 121/2/6
f 121/2/6 118/2/6 122/2/6
f 123/1/6 124/1/6 125/1/6
f 125/1/6 124/1/6 126/1/6
f 125/2/6 126/2/6 127/2/6
f 127/2/6 126/2/6 128/2/6
f 128/2/6 126/2/6 129/2/6
f 129/2/6 126/2/6 130/2/6
f 128/2/6 129/2/6 132/2/6
f 132/2/6 129/2/6 133/2/6
f 132/2/6 133/2/6 135/2/6
f 133/2/6 134/2/6 135/2/6
f 131/2/6 132/2/6 135/2/6
f 135/2/6 134/2/6 136/2/6
f 131/2/6 135/2/6 137/2/6
f 136/2/6 134/2/6 138/2/6
f 131/2/6 137/2/6 139/2/6
f 137/2/6 138/2/6 139/2/6
f 138/2/6 134/2/6 140/2/6
f 139/2/6 138/2/6 140/2/6
