# MagicaVoxel @ Ephtracy

# material
mtllib yatai2.mtl
usemtl palette

# normals
vn -1 0 0
vn 1 0 0
vn 0 0 1
vn 0 0 -1
vn 0 -1 0
vn 0 1 0

# texcoords
vt 0.0917969 0.5
vt 0.369141 0.5
vt 0.396484 0.5
vt 0.537109 0.5
vt 0.560547 0.5
vt 0.798828 0.5
vt 0.841797 0.5
vt 0.845703 0.5
vt 0.958984 0.5
vt 0.970703 0.5
vt 0.986328 0.5

# verts
v -24 0 12
v -24 0 -12
v -24 1 12
v -24 1 -12
v -21 1 -8
v -21 1 -9
v -21 10 -7
v -21 10 -8
v -21 10 -9
v -21 14 -4
v -21 14 -7
v -21 15 -1
v -21 15 -4
v -21 15 -7
v -21 16 3
v -21 16 -1
v -21 16 -4
v -21 17 6
v -21 17 3
v -21 17 -1
v -21 18 9
v -21 18 6
v -21 18 3
v -21 18 -5
v -21 18 -7
v -21 18 -8
v -21 19 12
v -21 19 11
v -21 19 9
v -21 19 6
v -21 19 -3
v -21 19 -5
v -21 19 -7
v -21 20 11
v -21 20 9
v -21 20 -1
v -21 20 -3
v -21 20 -5
v -21 21 -0
v -21 21 -1
v -21 21 -3
v -21 22 2
v -21 22 -0
v -21 22 -1
v -21 23 4
v -21 23 2
v -21 23 -0
v -21 24 6
v -21 24 4
v -21 24 2
v -21 25 8
v -21 25 6
v -21 25 4
v -21 26 11
v -21 26 8
v -21 26 6
v -21 27 12
v -21 27 11
v -21 27 8
v -20 1 10
v -20 1 9
v -20 1 -0
v -20 1 -1
v -20 4 9
v -20 4 -0
v -20 5 10
v -20 5 7
v -20 5 6
v -20 5 -0
v -20 5 -1
v -20 15 -1
v -20 16 -0
v -20 16 -1
v -20 17 6
v -20 18 7
v -20 18 6
v -16 4 9
v -16 4 -0
v -16 5 9
v -16 6 9
v -16 6 -0
v -10 19 5
v -10 19 4
v -10 20 5
v -10 20 4
v -10 23 4
v -10 24 5
v -10 24 4
v -10 27 13
v -10 27 12
v -10 27 11
v -10 28 13
v -10 28 12
v -10 28 11
v 0 19 5
v 0 19 4
v 0 20 5
v 0 20 4
v 0 23 4
v 0 24 5
v 0 24 4
v 0 27 13
v 0 27 12
v 0 27 11
v 0 28 13
v 0 28 12
v 0 28 11
v 10 19 5
v 10 19 4
v 10 20 5
v 10 20 4
v 10 23 4
v 10 24 5
v 10 24 4
v 10 27 13
v 10 27 12
v 10 27 11
v 10 28 13
v 10 28 12
v 10 28 11
v 15 3 8
v 15 3 1
v 15 4 8
v 15 4 1
v 15 6 8
v 15 6 1
v 19 4 9
v 19 4 -1
v 19 5 9
v 19 5 7
v 19 5 6
v 19 5 -0
v 19 5 -1
v 19 20 3
v 19 20 -0
v 19 20 -1
v 19 21 6
v 19 21 3
v 19 21 -0
v 19 21 -1
v 19 22 9
v 19 22 7
v 19 22 6
v 19 22 3
v 19 23 11
v 19 23 9
v 19 23 6
v 19 24 11
v 19 24 9
v 20 14 -4
v 20 14 -7
v 20 15 -1
v 20 15 -4
v 20 15 -7
v 20 16 3
v 20 16 -0
v 20 16 -1
v 20 16 -4
v 20 17 6
v 20 17 3
v 20 17 -0
v 20 18 9
v 20 18 7
v 20 18 6
v 20 18 3
v 20 18 -5
v 20 18 -7
v 20 19 11
v 20 19 9
v 20 19 7
v 20 19 -3
v 20 19 -5
v 20 20 11
v 20 20 9
v 20 20 3
v 20 20 -0
v 20 20 -1
v 20 20 -3
v 20 21 6
v 20 21 3
v 20 21 -0
v 20 22 9
v 20 22 7
v 20 22 6
v 20 22 3
v 20 22 2
v 20 22 -0
v 20 23 11
v 20 23 9
v 20 23 6
v 20 23 4
v 20 23 2
v 20 24 11
v 20 24 9
v 20 24 6
v 20 24 4
v 20 25 8
v 20 25 6
v 20 26 11
v 20 26 8
v -20 14 -4
v -20 14 -7
v -20 15 -1
v -20 15 -4
v -20 15 -7
v -20 16 3
v -20 16 -0
v -20 16 -1
v -20 16 -4
v -20 17 6
v -20 17 3
v -20 17 -0
v -20 18 9
v -20 18 7
v -20 18 6
v -20 18 3
v -20 18 -5
v -20 18 -7
v -20 19 11
v -20 19 9
v -20 19 7
v -20 19 -3
v -20 19 -5
v -20 20 11
v -20 20 9
v -20 20 3
v -20 20 -0
v -20 20 -1
v -20 20 -3
v -20 21 6
v -20 21 3
v -20 21 -0
v -20 22 9
v -20 22 7
v -20 22 6
v -20 22 3
v -20 22 2
v -20 22 -0
v -20 23 11
v -20 23 9
v -20 23 6
v -20 23 4
v -20 23 2
v -20 24 11
v -20 24 9
v -20 24 6
v -20 24 4
v -20 25 8
v -20 25 6
v -20 26 11
v -20 26 8
v -19 4 9
v -19 4 -1
v -19 5 9
v -19 5 7
v -19 5 6
v -19 5 -0
v -19 5 -1
v -19 20 3
v -19 20 -0
v -19 20 -1
v -19 21 6
v -19 21 3
v -19 21 -0
v -19 21 -1
v -19 22 9
v -19 22 7
v -19 22 6
v -19 22 3
v -19 23 11
v -19 23 9
v -19 23 6
v -19 24 11
v -19 24 9
v -15 3 8
v -15 3 1
v -15 4 8
v -15 4 1
v -15 6 8
v -15 6 1
v -9 19 5
v -9 19 4
v -9 20 5
v -9 20 4
v -9 23 4
v -9 24 5
v -9 24 4
v -9 27 13
v -9 27 12
v -9 27 11
v -9 28 13
v -9 28 12
v -9 28 11
v 1 19 5
v 1 19 4
v 1 20 5
v 1 20 4
v 1 23 4
v 1 24 5
v 1 24 4
v 1 27 13
v 1 27 12
v 1 27 11
v 1 28 13
v 1 28 12
v 1 28 11
v 11 19 5
v 11 19 4
v 11 20 5
v 11 20 4
v 11 23 4
v 11 24 5
v 11 24 4
v 11 27 13
v 11 27 12
v 11 27 11
v 11 28 13
v 11 28 12
v 11 28 11
v 16 4 9
v 16 4 -0
v 16 5 9
v 16 6 9
v 16 6 -0
v 20 1 10
v 20 1 9
v 20 1 -0
v 20 1 -1
v 20 4 9
v 20 4 -0
v 20 5 10
v 20 5 7
v 20 5 6
v 20 5 -0
v 20 5 -1
v 20 15 -1
v 20 16 -0
v 20 16 -1
v 20 17 6
v 20 18 7
v 20 18 6
v 21 1 -8
v 21 1 -9
v 21 10 -7
v 21 10 -8
v 21 10 -9
v 21 14 -4
v 21 14 -7
v 21 15 -1
v 21 15 -4
v 21 15 -7
v 21 16 3
v 21 16 -1
v 21 16 -4
v 21 17 6
v 21 17 3
v 21 17 -1
v 21 18 9
v 21 18 6
v 21 18 3
v 21 18 -5
v 21 18 -7
v 21 18 -8
v 21 19 12
v 21 19 11
v 21 19 9
v 21 19 6
v 21 19 -3
v 21 19 -5
v 21 19 -7
v 21 20 11
v 21 20 9
v 21 20 -1
v 21 20 -3
v 21 20 -5
v 21 21 -0
v 21 21 -1
v 21 21 -3
v 21 22 2
v 21 22 -0
v 21 22 -1
v 21 23 4
v 21 23 2
v 21 23 -0
v 21 24 6
v 21 24 4
v 21 24 2
v 21 25 8
v 21 25 6
v 21 25 4
v 21 26 11
v 21 26 8
v 21 26 6
v 21 27 12
v 21 27 11
v 21 27 8
v 24 0 12
v 24 0 -12
v 24 1 12
v 24 1 -12
v -10 27 13
v -10 28 13
v -9 27 13
v -9 28 13
v 0 27 13
v 0 28 13
v 1 27 13
v 1 28 13
v 10 27 13
v 10 28 13
v 11 27 13
v 11 28 13
v -24 0 12
v -24 1 12
v -21 19 12
v -21 27 12
v -20 19 12
v -20 27 12
v -18 22 12
v -18 23 12
v -17 21 12
v -17 22 12
v -17 23 12
v -17 24 12
v -16 20 12
v -16 21 12
v -15 20 12
v -15 21 12
v -15 24 12
v -15 25 12
v -14 24 12
v -14 25 12
v -13 21 12
v -13 22 12
v -13 23 12
v -13 24 12
v -12 21 12
v -12 22 12
v -12 23 12
v -12 24 12
v -11 21 12
v -11 24 12
v -10 27 12
v -9 27 12
v -7 20 12
v -7 21 12
v -7 22 12
v -7 23 12
v -7 24 12
v -7 25 12
v -6 19 12
v -6 20 12
v -6 21 12
v -6 22 12
v -6 23 12
v -6 24 12
v -5 19 12
v -5 20 12
v -5 21 12
v -5 22 12
v -5 23 12
v -5 24 12
v -4 22 12
v -4 23 12
v -4 24 12
v -4 25 12
v -2 20 12
v -2 21 12
v -1 20 12
v -1 21 12
v -1 23 12
v 0 20 12
v 0 21 12
v 0 23 12
v 0 25 12
v 0 27 12
v 1 20 12
v 1 21 12
v 1 22 12
v 1 23 12
v 1 25 12
v 1 27 12
v 2 20 12
v 2 21 12
v 2 22 12
v 3 20 12
v 3 21 12
v 6 20 12
v 6 21 12
v 6 22 12
v 6 23 12
v 6 24 12
v 6 25 12
v 7 19 12
v 7 20 12
v 7 21 12
v 7 22 12
v 7 23 12
v 7 24 12
v 8 19 12
v 8 20 12
v 8 21 12
v 8 22 12
v 8 23 12
v 8 24 12
v 9 22 12
v 9 23 12
v 9 24 12
v 9 25 12
v 9 26 12
v 10 25 12
v 10 26 12
v 10 27 12
v 11 20 12
v 11 21 12
v 11 27 12
v 12 19 12
v 12 20 12
v 12 21 12
v 12 22 12
v 13 19 12
v 13 20 12
v 13 21 12
v 13 22 12
v 13 23 12
v 14 20 12
v 14 21 12
v 14 22 12
v 14 23 12
v 20 19 12
v 20 27 12
v 21 19 12
v 21 27 12
v 24 0 12
v 24 1 12
v -20 1 10
v -20 5 10
v -19 1 10
v -19 4 10
v -10 1 10
v -10 4 10
v -9 1 10
v -9 4 10
v 0 1 10
v 0 4 10
v 1 1 10
v 1 4 10
v 10 1 10
v 10 4 10
v 11 1 10
v 11 4 10
v 19 1 10
v 19 4 10
v 20 1 10
v 20 5 10
v -21 18 9
v -21 19 9
v -20 18 9
v -20 19 9
v -20 22 9
v -20 23 9
v -19 22 9
v -19 23 9
v -16 5 9
v -16 6 9
v 16 5 9
v 16 6 9
v 19 22 9
v 19 23 9
v 20 18 9
v 20 19 9
v 20 22 9
v 20 23 9
v 21 18 9
v 21 19 9
v -20 25 8
v -20 26 8
v -19 25 8
v -19 26 8
v 19 25 8
v 19 26 8
v 20 25 8
v 20 26 8
v -20 5 7
v -20 18 7
v -20 19 7
v -20 22 7
v -19 5 7
v -19 22 7
v 19 5 7
v 19 22 7
v 20 5 7
v 20 18 7
v 20 19 7
v 20 22 7
v -21 17 6
v -21 18 6
v -20 17 6
v -20 18 6
v -20 24 6
v -20 25 6
v -19 24 6
v -19 25 6
v 19 24 6
v 19 25 6
v 20 17 6
v 20 18 6
v 20 24 6
v 20 25 6
v 21 17 6
v 21 18 6
v -10 19 5
v -10 20 5
v -10 24 5
v -9 19 5
v -9 20 5
v -9 24 5
v 0 19 5
v 0 20 5
v 0 24 5
v 1 19 5
v 1 20 5
v 1 24 5
v 10 19 5
v 10 20 5
v 10 24 5
v 11 19 5
v 11 20 5
v 11 24 5
v -20 23 4
v -20 24 4
v -19 23 4
v -19 24 4
v -10 23 4
v -10 24 4
v -9 23 4
v -9 24 4
v 0 23 4
v 0 24 4
v 1 23 4
v 1 24 4
v 10 23 4
v 10 24 4
v 11 23 4
v 11 24 4
v 19 23 4
v 19 24 4
v 20 23 4
v 20 24 4
v -21 16 3
v -21 17 3
v -20 16 3
v -20 17 3
v -20 20 3
v -20 21 3
v -19 20 3
v -19 21 3
v 19 20 3
v 19 21 3
v 20 16 3
v 20 17 3
v 20 20 3
v 20 21 3
v 21 16 3
v 21 17 3
v -20 22 2
v -20 23 2
v -19 22 2
v -19 23 2
v 19 22 2
v 19 23 2
v 20 22 2
v 20 23 2
v -15 3 1
v -15 4 1
v -15 6 1
v 15 3 1
v 15 4 1
v 15 6 1
v -20 5 -0
v -20 16 -0
v -20 17 -0
v -20 20 -0
v -20 21 -0
v -20 22 -0
v -19 5 -0
v -19 20 -0
v -19 21 -0
v -19 22 -0
v 19 5 -0
v 19 20 -0
v 19 21 -0
v 19 22 -0
v 20 5 -0
v 20 16 -0
v 20 17 -0
v 20 20 -0
v 20 21 -0
v 20 22 -0
v -21 15 -1
v -21 16 -1
v -20 15 -1
v -20 16 -1
v -19 20 -1
v -19 21 -1
v 19 20 -1
v 19 21 -1
v 20 15 -1
v 20 16 -1
v 21 15 -1
v 21 16 -1
v -20 19 -3
v -20 20 -3
v 20 19 -3
v 20 20 -3
v -21 14 -4
v -21 15 -4
v -20 14 -4
v -20 15 -4
v 20 14 -4
v 20 15 -4
v 21 14 -4
v 21 15 -4
v -20 18 -5
v -20 19 -5
v 20 18 -5
v 20 19 -5
v -21 10 -7
v -21 14 -7
v -20 10 -7
v -20 14 -7
v -20 15 -7
v -20 18 -7
v -19 10 -7
v -19 18 -7
v -16 10 -7
v -16 18 -7
v -13 10 -7
v -13 18 -7
v -10 10 -7
v -10 18 -7
v -7 10 -7
v -7 18 -7
v -4 10 -7
v -4 18 -7
v -1 10 -7
v -1 18 -7
v 2 10 -7
v 2 18 -7
v 5 10 -7
v 5 18 -7
v 8 10 -7
v 8 18 -7
v 11 10 -7
v 11 18 -7
v 14 10 -7
v 14 18 -7
v 17 10 -7
v 17 18 -7
v 20 10 -7
v 20 14 -7
v 20 15 -7
v 20 18 -7
v 21 10 -7
v 21 14 -7
v -21 1 -8
v -21 10 -8
v -20 1 -8
v -20 10 -8
v -19 1 -8
v -19 10 -8
v -16 1 -8
v -16 10 -8
v -13 1 -8
v -13 10 -8
v -10 1 -8
v -10 10 -8
v -7 1 -8
v -7 10 -8
v -4 1 -8
v -4 10 -8
v -1 1 -8
v -1 10 -8
v 2 1 -8
v 2 10 -8
v 5 1 -8
v 5 10 -8
v 8 1 -8
v 8 10 -8
v 11 1 -8
v 11 10 -8
v 14 1 -8
v 14 10 -8
v 17 1 -8
v 17 10 -8
v 20 1 -8
v 20 10 -8
v 21 1 -8
v 21 10 -8
v -20 19 11
v -20 20 11
v -20 23 11
v -20 24 11
v -20 26 11
v -19 23 11
v -19 24 11
v -18 22 11
v -18 23 11
v -17 21 11
v -17 22 11
v -17 23 11
v -17 24 11
v -16 20 11
v -16 21 11
v -15 20 11
v -15 21 11
v -15 24 11
v -15 25 11
v -14 24 11
v -14 25 11
v -13 21 11
v -13 22 11
v -13 23 11
v -13 24 11
v -12 21 11
v -12 22 11
v -12 23 11
v -12 24 11
v -11 21 11
v -11 24 11
v -10 27 11
v -10 28 11
v -9 27 11
v -9 28 11
v -7 20 11
v -7 21 11
v -7 22 11
v -7 23 11
v -7 24 11
v -7 25 11
v -6 19 11
v -6 20 11
v -6 21 11
v -6 22 11
v -6 23 11
v -6 24 11
v -5 19 11
v -5 20 11
v -5 21 11
v -5 22 11
v -5 23 11
v -5 24 11
v -4 22 11
v -4 23 11
v -4 24 11
v -4 25 11
v -2 20 11
v -2 21 11
v -1 20 11
v -1 21 11
v -1 23 11
v 0 20 11
v 0 21 11
v 0 23 11
v 0 25 11
v 0 27 11
v 0 28 11
v 1 20 11
v 1 21 11
v 1 22 11
v 1 23 11
v 1 25 11
v 1 27 11
v 1 28 11
v 2 20 11
v 2 21 11
v 2 22 11
v 3 20 11
v 3 21 11
v 6 20 11
v 6 21 11
v 6 22 11
v 6 23 11
v 6 24 11
v 6 25 11
v 7 19 11
v 7 20 11
v 7 21 11
v 7 22 11
v 7 23 11
v 7 24 11
v 8 19 11
v 8 20 11
v 8 21 11
v 8 22 11
v 8 23 11
v 8 24 11
v 9 22 11
v 9 23 11
v 9 24 11
v 9 25 11
v 9 26 11
v 10 25 11
v 10 26 11
v 10 27 11
v 10 28 11
v 11 20 11
v 11 21 11
v 11 27 11
v 11 28 11
v 12 19 11
v 12 20 11
v 12 21 11
v 12 22 11
v 13 19 11
v 13 20 11
v 13 21 11
v 13 22 11
v 13 23 11
v 14 20 11
v 14 21 11
v 14 22 11
v 14 23 11
v 19 23 11
v 19 24 11
v 19 26 11
v 20 19 11
v 20 20 11
v 20 23 11
v 20 24 11
v 20 26 11
v -20 23 9
v -20 24 9
v -19 4 9
v -19 5 9
v -19 23 9
v -19 24 9
v -16 4 9
v -16 5 9
v 16 4 9
v 16 5 9
v 19 4 9
v 19 5 9
v 19 23 9
v 19 24 9
v 20 23 9
v 20 24 9
v -21 26 8
v -21 27 8
v -20 26 8
v -20 27 8
v -19 26 8
v -15 3 8
v -15 4 8
v -15 6 8
v 15 3 8
v 15 4 8
v 15 6 8
v 19 26 8
v 19 27 8
v 21 26 8
v 21 27 8
v -21 25 6
v -21 26 6
v -20 5 6
v -20 17 6
v -20 18 6
v -20 21 6
v -20 22 6
v -20 23 6
v -19 5 6
v -19 21 6
v -19 22 6
v -19 23 6
v -19 25 6
v -19 26 6
v 19 5 6
v 19 21 6
v 19 22 6
v 19 23 6
v 19 25 6
v 19 26 6
v 20 5 6
v 20 17 6
v 20 18 6
v 20 21 6
v 20 22 6
v 20 23 6
v 21 25 6
v 21 26 6
v -21 24 4
v -21 25 4
v -19 24 4
v -19 25 4
v -10 19 4
v -10 20 4
v -10 23 4
v -9 19 4
v -9 20 4
v -9 23 4
v 0 19 4
v 0 20 4
v 0 23 4
v 1 19 4
v 1 20 4
v 1 23 4
v 10 19 4
v 10 20 4
v 10 23 4
v 11 19 4
v 11 20 4
v 11 23 4
v 19 24 4
v 19 25 4
v 21 24 4
v 21 25 4
v -20 21 3
v -20 22 3
v -19 21 3
v -19 22 3
v 19 21 3
v 19 22 3
v 20 21 3
v 20 22 3
v -21 23 2
v -21 24 2
v -19 23 2
v -19 24 2
v 19 23 2
v 19 24 2
v 21 23 2
v 21 24 2
v -21 22 -0
v -21 23 -0
v -19 22 -0
v -19 23 -0
v -16 4 -0
v -16 6 -0
v 16 4 -0
v 16 6 -0
v 19 22 -0
v 19 23 -0
v 21 22 -0
v 21 23 -0
v -21 21 -1
v -21 22 -1
v -20 1 -1
v -20 5 -1
v -20 15 -1
v -20 16 -1
v -20 20 -1
v -20 21 -1
v -19 1 -1
v -19 4 -1
v -19 5 -1
v -19 20 -1
v -19 21 -1
v -19 22 -1
v 19 1 -1
v 19 4 -1
v 19 5 -1
v 19 20 -1
v 19 21 -1
v 19 22 -1
v 20 1 -1
v 20 5 -1
v 20 15 -1
v 20 16 -1
v 20 20 -1
v 20 21 -1
v 21 21 -1
v 21 22 -1
v -21 20 -3
v -21 21 -3
v -20 20 -3
v -20 21 -3
v 20 20 -3
v 20 21 -3
v 21 20 -3
v 21 21 -3
v -21 19 -5
v -21 20 -5
v -20 19 -5
v -20 20 -5
v 20 19 -5
v 20 20 -5
v 21 19 -5
v 21 20 -5
v -21 18 -7
v -21 19 -7
v -20 18 -7
v -20 19 -7
v -19 18 -7
v -16 18 -7
v -13 18 -7
v -10 18 -7
v -7 18 -7
v -4 18 -7
v -1 18 -7
v 2 18 -7
v 5 18 -7
v 8 18 -7
v 11 18 -7
v 14 18 -7
v 17 18 -7
v 20 18 -7
v 20 19 -7
v 21 18 -7
v 21 19 -7
v -21 10 -8
v -21 18 -8
v -20 10 -8
v -20 18 -8
v -19 10 -8
v -19 18 -8
v -16 10 -8
v -16 18 -8
v -13 10 -8
v -13 18 -8
v -10 10 -8
v -10 18 -8
v -7 10 -8
v -7 18 -8
v -4 10 -8
v -4 18 -8
v -1 10 -8
v -1 18 -8
v 2 10 -8
v 2 18 -8
v 5 10 -8
v 5 18 -8
v 8 10 -8
v 8 18 -8
v 11 10 -8
v 11 18 -8
v 14 10 -8
v 14 18 -8
v 17 10 -8
v 17 18 -8
v 20 10 -8
v 20 18 -8
v 21 10 -8
v 21 18 -8
v -21 1 -9
v -21 10 -9
v -20 1 -9
v -20 10 -9
v -19 1 -9
v -19 10 -9
v -16 1 -9
v -16 10 -9
v -13 1 -9
v -13 10 -9
v -10 1 -9
v -10 10 -9
v -7 1 -9
v -7 10 -9
v -4 1 -9
v -4 10 -9
v -1 1 -9
v -1 10 -9
v 2 1 -9
v 2 10 -9
v 5 1 -9
v 5 10 -9
v 8 1 -9
v 8 10 -9
v 11 1 -9
v 11 10 -9
v 14 1 -9
v 14 10 -9
v 17 1 -9
v 17 10 -9
v 20 1 -9
v 20 10 -9
v 21 1 -9
v 21 10 -9
v -24 0 -12
v -24 1 -12
v 24 0 -12
v 24 1 -12
v -24 0 12
v 24 0 12
v -24 0 -12
v 24 0 -12
v -21 10 -7
v -20 10 -7
v -19 10 -7
v -16 10 -7
v -13 10 -7
v -10 10 -7
v -7 10 -7
v -4 10 -7
v -1 10 -7
v 2 10 -7
v 5 10 -7
v 8 10 -7
v 11 10 -7
v 14 10 -7
v 17 10 -7
v 20 10 -7
v 21 10 -7
v -21 10 -8
v -20 10 -8
v -19 10 -8
v -16 10 -8
v -13 10 -8
v -10 10 -8
v -7 10 -8
v -4 10 -8
v -1 10 -8
v 2 10 -8
v 5 10 -8
v 8 10 -8
v 11 10 -8
v 14 10 -8
v 17 10 -8
v 20 10 -8
v 21 10 -8
v -21 14 -4
v -20 14 -4
v 20 14 -4
v 21 14 -4
v -21 14 -7
v -20 14 -7
v 20 14 -7
v 21 14 -7
v -21 15 -1
v -20 15 -1
v 20 15 -1
v 21 15 -1
v -21 15 -4
v -20 15 -4
v 20 15 -4
v 21 15 -4
v -21 16 3
v -20 16 3
v 20 16 3
v 21 16 3
v -20 16 -0
v 20 16 -0
v -21 16 -1
v -20 16 -1
v 20 16 -1
v 21 16 -1
v -21 17 6
v -20 17 6
v 20 17 6
v 21 17 6
v -21 17 3
v -20 17 3
v 20 17 3
v 21 17 3
v -21 18 9
v -20 18 9
v 20 18 9
v 21 18 9
v -20 18 7
v 20 18 7
v -21 18 6
v -20 18 6
v 20 18 6
v 21 18 6
v -20 18 -5
v 20 18 -5
v -20 18 -7
v -19 18 -7
v -16 18 -7
v -13 18 -7
v -10 18 -7
v -7 18 -7
v -4 18 -7
v -1 18 -7
v 2 18 -7
v 5 18 -7
v 8 18 -7
v 11 18 -7
v 14 18 -7
v 17 18 -7
v 20 18 -7
v -21 19 12
v -20 19 12
v -6 19 12
v -5 19 12
v 7 19 12
v 8 19 12
v 12 19 12
v 13 19 12
v 20 19 12
v 21 19 12
v -21 19 11
v -20 19 11
v -6 19 11
v -5 19 11
v 7 19 11
v 8 19 11
v 12 19 11
v 13 19 11
v 20 19 11
v 21 19 11
v -21 19 9
v -20 19 9
v 20 19 9
v 21 19 9
v -10 19 5
v -9 19 5
v 0 19 5
v 1 19 5
v 10 19 5
v 11 19 5
v -10 19 4
v -9 19 4
v 0 19 4
v 1 19 4
v 10 19 4
v 11 19 4
v -20 19 -3
v 20 19 -3
v -20 19 -5
v 20 19 -5
v -20 20 3
v -19 20 3
v 19 20 3
v 20 20 3
v -20 20 -0
v -19 20 -0
v 19 20 -0
v 20 20 -0
v -20 20 -1
v -19 20 -1
v 19 20 -1
v 20 20 -1
v -20 20 -3
v 20 20 -3
v -20 21 6
v -19 21 6
v 19 21 6
v 20 21 6
v -20 21 3
v -19 21 3
v 19 21 3
v 20 21 3
v -19 21 -0
v 19 21 -0
v -19 21 -1
v 19 21 -1
v -20 22 9
v -19 22 9
v 19 22 9
v 20 22 9
v -20 22 7
v -19 22 7
v 19 22 7
v 20 22 7
v -20 22 2
v -19 22 2
v 19 22 2
v 20 22 2
v -20 22 -0
v -19 22 -0
v 19 22 -0
v 20 22 -0
v -20 23 11
v -19 23 11
v 19 23 11
v 20 23 11
v -20 23 9
v -19 23 9
v 19 23 9
v 20 23 9
v -20 23 4
v -19 23 4
v -10 23 4
v -9 23 4
v 0 23 4
v 1 23 4
v 10 23 4
v 11 23 4
v 19 23 4
v 20 23 4
v -20 23 2
v -19 23 2
v 19 23 2
v 20 23 2
v -20 24 6
v -19 24 6
v 19 24 6
v 20 24 6
v -10 24 5
v -9 24 5
v 0 24 5
v 1 24 5
v 10 24 5
v 11 24 5
v -20 24 4
v -19 24 4
v -10 24 4
v -9 24 4
v 0 24 4
v 1 24 4
v 10 24 4
v 11 24 4
v 19 24 4
v 20 24 4
v -20 25 8
v -19 25 8
v 19 25 8
v 20 25 8
v -20 25 6
v -19 25 6
v 19 25 6
v 20 25 6
v -20 26 11
v 9 26 11
v 10 26 11
v 19 26 11
v 20 26 11
v -20 26 8
v -19 26 8
v 19 26 8
v 20 26 8
v -10 27 13
v -9 27 13
v 0 27 13
v 1 27 13
v 10 27 13
v 11 27 13
v -10 27 12
v -9 27 12
v 0 27 12
v 1 27 12
v 10 27 12
v 11 27 12
v -24 1 12
v 24 1 12
v -20 1 10
v -19 1 10
v -10 1 10
v -9 1 10
v 0 1 10
v 1 1 10
v 10 1 10
v 11 1 10
v 19 1 10
v 20 1 10
v -20 1 9
v 20 1 9
v -20 1 -0
v 20 1 -0
v -20 1 -1
v -19 1 -1
v 19 1 -1
v 20 1 -1
v -21 1 -8
v -20 1 -8
v -19 1 -8
v -16 1 -8
v -13 1 -8
v -10 1 -8
v -7 1 -8
v -4 1 -8
v -1 1 -8
v 2 1 -8
v 5 1 -8
v 8 1 -8
v 11 1 -8
v 14 1 -8
v 17 1 -8
v 20 1 -8
v 21 1 -8
v -21 1 -9
v -20 1 -9
v -19 1 -9
v -16 1 -9
v -13 1 -9
v -10 1 -9
v -7 1 -9
v -4 1 -9
v -1 1 -9
v 2 1 -9
v 5 1 -9
v 8 1 -9
v 11 1 -9
v 14 1 -9
v 17 1 -9
v 20 1 -9
v 21 1 -9
v -24 1 -12
v 24 1 -12
v -15 3 8
v 15 3 8
v -15 3 1
v 15 3 1
v -19 4 9
v -16 4 9
v 16 4 9
v 19 4 9
v -16 4 -0
v 16 4 -0
v -19 4 -1
v 19 4 -1
v -20 5 10
v 20 5 10
v -19 5 9
v -16 5 9
v 16 5 9
v 19 5 9
v -20 5 7
v -19 5 7
v 19 5 7
v 20 5 7
v -20 5 6
v -19 5 6
v 19 5 6
v 20 5 6
v -20 5 -0
v -19 5 -0
v 19 5 -0
v 20 5 -0
v -16 6 9
v 16 6 9
v -15 6 8
v 15 6 8
v -15 6 1
v 15 6 1
v -16 6 -0
v 16 6 -0
v -21 10 -8
v -20 10 -8
v -19 10 -8
v -16 10 -8
v -13 10 -8
v -10 10 -8
v -7 10 -8
v -4 10 -8
v -1 10 -8
v 2 10 -8
v 5 10 -8
v 8 10 -8
v 11 10 -8
v 14 10 -8
v 17 10 -8
v 20 10 -8
v 21 10 -8
v -21 10 -9
v -20 10 -9
v -19 10 -9
v -16 10 -9
v -13 10 -9
v -10 10 -9
v -7 10 -9
v -4 10 -9
v -1 10 -9
v 2 10 -9
v 5 10 -9
v 8 10 -9
v 11 10 -9
v 14 10 -9
v 17 10 -9
v 20 10 -9
v 21 10 -9
v -21 18 -7
v -20 18 -7
v -19 18 -7
v -16 18 -7
v -13 18 -7
v -10 18 -7
v -7 18 -7
v -4 18 -7
v -1 18 -7
v 2 18 -7
v 5 18 -7
v 8 18 -7
v 11 18 -7
v 14 18 -7
v 17 18 -7
v 20 18 -7
v 21 18 -7
v -21 18 -8
v -20 18 -8
v -19 18 -8
v -16 18 -8
v -13 18 -8
v -10 18 -8
v -7 18 -8
v -4 18 -8
v -1 18 -8
v 2 18 -8
v 5 18 -8
v 8 18 -8
v 11 18 -8
v 14 18 -8
v 17 18 -8
v 20 18 -8
v 21 18 -8
v -21 19 -5
v -20 19 -5
v 20 19 -5
v 21 19 -5
v -21 19 -7
v -20 19 -7
v 20 19 -7
v 21 19 -7
v -21 20 -3
v -20 20 -3
v 20 20 -3
v 21 20 -3
v -21 20 -5
v -20 20 -5
v 20 20 -5
v 21 20 -5
v -20 21 3
v -19 21 3
v 19 21 3
v 20 21 3
v -20 21 -0
v -19 21 -0
v 19 21 -0
v 20 21 -0
v -21 21 -1
v -20 21 -1
v -19 21 -1
v 19 21 -1
v 20 21 -1
v 21 21 -1
v -21 21 -3
v -20 21 -3
v 20 21 -3
v 21 21 -3
v -20 22 6
v -19 22 6
v 19 22 6
v 20 22 6
v -20 22 3
v -19 22 3
v 19 22 3
v 20 22 3
v -21 22 -0
v -19 22 -0
v 19 22 -0
v 21 22 -0
v -21 22 -1
v -19 22 -1
v 19 22 -1
v 21 22 -1
v -20 23 9
v -19 23 9
v 19 23 9
v 20 23 9
v -20 23 6
v -19 23 6
v 19 23 6
v 20 23 6
v -21 23 2
v -19 23 2
v 19 23 2
v 21 23 2
v -21 23 -0
v -19 23 -0
v 19 23 -0
v 21 23 -0
v -20 24 11
v -19 24 11
v 19 24 11
v 20 24 11
v -20 24 9
v -19 24 9
v 19 24 9
v 20 24 9
v -21 24 4
v -19 24 4
v 19 24 4
v 21 24 4
v -21 24 2
v -19 24 2
v 19 24 2
v 21 24 2
v -21 25 6
v -19 25 6
v 19 25 6
v 21 25 6
v -21 25 4
v -19 25 4
v 19 25 4
v 21 25 4
v -21 26 8
v -20 26 8
v -19 26 8
v 19 26 8
v 21 26 8
v -21 26 6
v -19 26 6
v 19 26 6
v 21 26 6
v -21 27 12
v -20 27 12
v -10 27 12
v -9 27 12
v 0 27 12
v 1 27 12
v 10 27 12
v 11 27 12
v 20 27 12
v 21 27 12
v -21 27 11
v -20 27 11
v -10 27 11
v -9 27 11
v 0 27 11
v 1 27 11
v 10 27 11
v 11 27 11
v 19 27 11
v 20 27 11
v 21 27 11
v -21 27 8
v -20 27 8
v 19 27 8
v 21 27 8
v -10 28 13
v -9 28 13
v 0 28 13
v 1 28 13
v 10 28 13
v 11 28 13
v -10 28 12
v -9 28 12
v 0 28 12
v 1 28 12
v 10 28 12
v 11 28 12
v -10 28 11
v -9 28 11
v 0 28 11
v 1 28 11
v 10 28 11
v 11 28 11

# faces
f 3/3/1 2/3/1 1/3/1
f 4/3/1 2/3/1 3/3/1
f 8/11/1 6/11/1 5/11/1
f 9/11/1 6/11/1 8/11/1
f 11/11/1 8/11/1 7/11/1
f 13/6/1 11/6/1 10/6/1
f 14/11/1 8/11/1 11/11/1
f 14/6/1 11/6/1 13/6/1
f 16/6/1 13/6/1 12/6/1
f 17/10/1 14/10/1 13/10/1
f 17/6/1 13/6/1 16/6/1
f 19/6/1 16/6/1 15/6/1
f 20/10/1 17/10/1 16/10/1
f 20/6/1 16/6/1 19/6/1
f 22/6/1 19/6/1 18/6/1
f 23/10/1 20/10/1 19/10/1
f 23/6/1 19/6/1 22/6/1
f 24/10/1 14/10/1 17/10/1
f 24/10/1 20/10/1 23/10/1
f 24/10/1 17/10/1 20/10/1
f 25/11/1 8/11/1 14/11/1
f 25/10/1 14/10/1 24/10/1
f 26/11/1 8/11/1 25/11/1
f 29/6/1 22/6/1 21/6/1
f 30/10/1 24/10/1 23/10/1
f 30/10/1 23/10/1 22/10/1
f 30/6/1 22/6/1 29/6/1
f 31/10/1 24/10/1 30/10/1
f 32/11/1 25/11/1 24/11/1
f 32/10/1 24/10/1 31/10/1
f 33/11/1 25/11/1 32/11/1
f 34/6/1 29/6/1 28/6/1
f 34/9/1 28/9/1 27/9/1
f 35/10/1 31/10/1 30/10/1
f 35/6/1 29/6/1 34/6/1
f 35/10/1 30/10/1 29/10/1
f 36/10/1 31/10/1 35/10/1
f 37/11/1 32/11/1 31/11/1
f 37/10/1 31/10/1 36/10/1
f 38/11/1 32/11/1 37/11/1
f 39/10/1 36/10/1 35/10/1
f 39/10/1 35/10/1 34/10/1
f 40/11/1 37/11/1 36/11/1
f 40/10/1 36/10/1 39/10/1
f 41/11/1 37/11/1 40/11/1
f 42/10/1 39/10/1 34/10/1
f 43/11/1 40/11/1 39/11/1
f 43/10/1 39/10/1 42/10/1
f 44/11/1 40/11/1 43/11/1
f 45/10/1 42/10/1 34/10/1
f 46/11/1 43/11/1 42/11/1
f 46/10/1 42/10/1 45/10/1
f 47/11/1 43/11/1 46/11/1
f 48/10/1 45/10/1 34/10/1
f 49/11/1 46/11/1 45/11/1
f 49/10/1 45/10/1 48/10/1
f 50/11/1 46/11/1 49/11/1
f 51/10/1 48/10/1 34/10/1
f 52/11/1 49/11/1 48/11/1
f 52/10/1 48/10/1 51/10/1
f 53/11/1 49/11/1 52/11/1
f 54/9/1 34/9/1 27/9/1
f 54/10/1 51/10/1 34/10/1
f 55/11/1 52/11/1 51/11/1
f 55/10/1 51/10/1 54/10/1
f 56/11/1 52/11/1 55/11/1
f 57/9/1 54/9/1 27/9/1
f 58/11/1 55/11/1 54/11/1
f 58/9/1 54/9/1 57/9/1
f 59/11/1 55/11/1 58/11/1
f 64/5/1 61/5/1 60/5/1
f 64/2/1 62/2/1 61/2/1
f 65/5/1 63/5/1 62/5/1
f 65/2/1 62/2/1 64/2/1
f 66/5/1 64/5/1 60/5/1
f 66/5/1 65/5/1 64/5/1
f 67/5/1 65/5/1 66/5/1
f 68/5/1 65/5/1 67/5/1
f 69/5/1 63/5/1 65/5/1
f 69/5/1 65/5/1 68/5/1
f 70/5/1 63/5/1 69/5/1
f 71/11/1 70/11/1 69/11/1
f 72/11/1 71/11/1 69/11/1
f 73/11/1 71/11/1 72/11/1
f 74/11/1 68/11/1 67/11/1
f 75/11/1 74/11/1 67/11/1
f 76/11/1 74/11/1 75/11/1
f 79/4/1 78/4/1 77/4/1
f 80/4/1 78/4/1 79/4/1
f 81/4/1 78/4/1 80/4/1
f 84/1/1 83/1/1 82/1/1
f 85/1/1 83/1/1 84/1/1
f 86/11/1 85/11/1 84/11/1
f 87/11/1 86/11/1 84/11/1
f 88/11/1 86/11/1 87/11/1
f 92/1/1 90/1/1 89/1/1
f 93/11/1 91/11/1 90/11/1
f 93/1/1 90/1/1 92/1/1
f 94/11/1 91/11/1 93/11/1
f 97/1/1 96/1/1 95/1/1
f 98/1/1 96/1/1 97/1/1
f 99/11/1 98/11/1 97/11/1
f 100/11/1 99/11/1 97/11/1
f 101/11/1 99/11/1 100/11/1
f 105/1/1 103/1/1 102/1/1
f 106/11/1 104/11/1 103/11/1
f 106/1/1 103/1/1 105/1/1
f 107/11/1 104/11/1 106/11/1
f 110/1/1 109/1/1 108/1/1
f 111/1/1 109/1/1 110/1/1
f 112/11/1 111/11/1 110/11/1
f 113/11/1 112/11/1 110/11/1
f 114/11/1 112/11/1 113/11/1
f 118/1/1 116/1/1 115/1/1
f 119/11/1 117/11/1 116/11/1
f 119/1/1 116/1/1 118/1/1
f 120/11/1 117/11/1 119/11/1
f 123/10/1 122/10/1 121/10/1
f 124/10/1 122/10/1 123/10/1
f 125/4/1 124/4/1 123/4/1
f 126/4/1 124/4/1 125/4/1
f 129/5/1 128/5/1 127/5/1
f 130/5/1 128/5/1 129/5/1
f 131/5/1 128/5/1 130/5/1
f 132/5/1 128/5/1 131/5/1
f 133/5/1 128/5/1 132/5/1
f 135/11/1 133/11/1 132/11/1
f 136/11/1 133/11/1 135/11/1
f 137/11/1 131/11/1 130/11/1
f 138/11/1 135/11/1 134/11/1
f 138/11/1 136/11/1 135/11/1
f 139/11/1 136/11/1 138/11/1
f 140/11/1 136/11/1 139/11/1
f 142/11/1 137/11/1 130/11/1
f 142/11/1 138/11/1 137/11/1
f 143/11/1 138/11/1 142/11/1
f 144/11/1 138/11/1 143/11/1
f 146/11/1 142/11/1 141/11/1
f 146/11/1 143/11/1 142/11/1
f 147/11/1 143/11/1 146/11/1
f 148/11/1 146/11/1 145/11/1
f 149/11/1 146/11/1 148/11/1
f 153/6/1 151/6/1 150/6/1
f 154/6/1 151/6/1 153/6/1
f 157/6/1 153/6/1 152/6/1
f 158/10/1 154/10/1 153/10/1
f 158/6/1 153/6/1 157/6/1
f 160/6/1 156/6/1 155/6/1
f 161/6/1 156/6/1 160/6/1
f 164/6/1 160/6/1 159/6/1
f 165/10/1 161/10/1 160/10/1
f 165/6/1 160/6/1 164/6/1
f 166/10/1 154/10/1 158/10/1
f 166/10/1 158/10/1 157/10/1
f 167/10/1 154/10/1 166/10/1
f 169/6/1 163/6/1 162/6/1
f 170/6/1 163/6/1 169/6/1
f 171/10/1 166/10/1 157/10/1
f 172/10/1 166/10/1 171/10/1
f 173/6/1 169/6/1 168/6/1
f 174/10/1 170/10/1 169/10/1
f 174/6/1 169/6/1 173/6/1
f 175/10/1 161/10/1 165/10/1
f 175/10/1 165/10/1 164/10/1
f 176/10/1 161/10/1 175/10/1
f 177/10/1 171/10/1 157/10/1
f 178/10/1 171/10/1 177/10/1
f 179/10/1 175/10/1 164/10/1
f 180/10/1 175/10/1 179/10/1
f 182/10/1 170/10/1 174/10/1
f 182/10/1 174/10/1 173/10/1
f 183/10/1 170/10/1 182/10/1
f 185/10/1 181/10/1 180/10/1
f 186/10/1 181/10/1 185/10/1
f 187/10/1 181/10/1 186/10/1
f 188/10/1 182/10/1 173/10/1
f 189/10/1 182/10/1 188/10/1
f 190/10/1 186/10/1 185/10/1
f 190/10/1 185/10/1 184/10/1
f 191/10/1 186/10/1 190/10/1
f 192/10/1 186/10/1 191/10/1
f 194/10/1 190/10/1 189/10/1
f 194/10/1 191/10/1 190/10/1
f 195/10/1 191/10/1 194/10/1
f 196/10/1 191/10/1 195/10/1
f 197/10/1 194/10/1 193/10/1
f 197/10/1 195/10/1 194/10/1
f 198/10/1 195/10/1 197/10/1
f 199/10/1 197/10/1 193/10/1
f 200/10/1 197/10/1 199/10/1
f 201/6/2 202/6/2 204/6/2
f 204/6/2 202/6/2 205/6/2
f 203/6/2 204/6/2 208/6/2
f 204/10/2 205/10/2 209/10/2
f 208/6/2 204/6/2 209/6/2
f 206/6/2 207/6/2 211/6/2
f 211/6/2 207/6/2 212/6/2
f 210/6/2 211/6/2 215/6/2
f 211/10/2 212/10/2 216/10/2
f 215/6/2 211/6/2 216/6/2
f 209/10/2 205/10/2 217/10/2
f 208/10/2 209/10/2 217/10/2
f 217/10/2 205/10/2 218/10/2
f 213/6/2 214/6/2 220/6/2
f 220/6/2 214/6/2 221/6/2
f 208/10/2 217/10/2 222/10/2
f 222/10/2 217/10/2 223/10/2
f 219/6/2 220/6/2 224/6/2
f 220/10/2 221/10/2 225/10/2
f 224/6/2 220/6/2 225/6/2
f 216/10/2 212/10/2 226/10/2
f 215/10/2 216/10/2 226/10/2
f 226/10/2 212/10/2 227/10/2
f 208/10/2 222/10/2 228/10/2
f 228/10/2 222/10/2 229/10/2
f 215/10/2 226/10/2 230/10/2
f 230/10/2 226/10/2 231/10/2
f 225/10/2 221/10/2 233/10/2
f 224/10/2 225/10/2 233/10/2
f 233/10/2 221/10/2 234/10/2
f 231/10/2 232/10/2 236/10/2
f 236/10/2 232/10/2 237/10/2
f 237/10/2 232/10/2 238/10/2
f 224/10/2 233/10/2 239/10/2
f 239/10/2 233/10/2 240/10/2
f 236/10/2 237/10/2 241/10/2
f 235/10/2 236/10/2 241/10/2
f 241/10/2 237/10/2 242/10/2
f 242/10/2 237/10/2 243/10/2
f 240/10/2 241/10/2 245/10/2
f 241/10/2 242/10/2 245/10/2
f 245/10/2 242/10/2 246/10/2
f 246/10/2 242/10/2 247/10/2
f 244/10/2 245/10/2 248/10/2
f 245/10/2 246/10/2 248/10/2
f 248/10/2 246/10/2 249/10/2
f 244/10/2 248/10/2 250/10/2
f 250/10/2 248/10/2 251/10/2
f 252/5/2 253/5/2 254/5/2
f 254/5/2 253/5/2 255/5/2
f 255/5/2 253/5/2 256/5/2
f 256/5/2 253/5/2 257/5/2
f 257/5/2 253/5/2 258/5/2
f 257/11/2 258/11/2 260/11/2
f 260/11/2 258/11/2 261/11/2
f 255/11/2 256/11/2 262/11/2
f 259/11/2 260/11/2 263/11/2
f 260/11/2 261/11/2 263/11/2
f 263/11/2 261/11/2 264/11/2
f 264/11/2 261/11/2 265/11/2
f 255/11/2 262/11/2 267/11/2
f 262/11/2 263/11/2 267/11/2
f 267/11/2 263/11/2 268/11/2
f 268/11/2 263/11/2 269/11/2
f 266/11/2 267/11/2 271/11/2
f 267/11/2 268/11/2 271/11/2
f 271/11/2 268/11/2 272/11/2
f 270/11/2 271/11/2 273/11/2
f 273/11/2 271/11/2 274/11/2
f 275/10/2 276/10/2 277/10/2
f 277/10/2 276/10/2 278/10/2
f 277/4/2 278/4/2 279/4/2
f 279/4/2 278/4/2 280/4/2
f 281/1/2 282/1/2 283/1/2
f 283/1/2 282/1/2 284/1/2
f 283/11/2 284/11/2 285/11/2
f 283/11/2 285/11/2 286/11/2
f 286/11/2 285/11/2 287/11/2
f 288/1/2 289/1/2 291/1/2
f 289/11/2 290/11/2 292/11/2
f 291/1/2 289/1/2 292/1/2
f 292/11/2 290/11/2 293/11/2
f 294/1/2 295/1/2 296/1/2
f 296/1/2 295/1/2 297/1/2
f 296/11/2 297/11/2 298/11/2
f 296/11/2 298/11/2 299/11/2
f 299/11/2 298/11/2 300/11/2
f 301/1/2 302/1/2 304/1/2
f 302/11/2 303/11/2 305/11/2
f 304/1/2 302/1/2 305/1/2
f 305/11/2 303/11/2 306/11/2
f 307/1/2 308/1/2 309/1/2
f 309/1/2 308/1/2 310/1/2
f 309/11/2 310/11/2 311/11/2
f 309/11/2 311/11/2 312/11/2
f 312/11/2 311/11/2 313/11/2
f 314/1/2 315/1/2 317/1/2
f 315/11/2 316/11/2 318/11/2
f 317/1/2 315/1/2 318/1/2
f 318/11/2 316/11/2 319/11/2
f 320/4/2 321/4/2 322/4/2
f 322/4/2 321/4/2 323/4/2
f 323/4/2 321/4/2 324/4/2
f 325/5/2 326/5/2 329/5/2
f 326/2/2 327/2/2 329/2/2
f 327/5/2 328/5/2 330/5/2
f 329/2/2 327/2/2 330/2/2
f 325/5/2 329/5/2 331/5/2
f 329/5/2 330/5/2 331/5/2
f 331/5/2 330/5/2 332/5/2
f 332/5/2 330/5/2 333/5/2
f 330/5/2 328/5/2 334/5/2
f 333/5/2 330/5/2 334/5/2
f 334/5/2 328/5/2 335/5/2
f 334/11/2 335/11/2 336/11/2
f 334/11/2 336/11/2 337/11/2
f 337/11/2 336/11/2 338/11/2
f 332/11/2 333/11/2 339/11/2
f 332/11/2 339/11/2 340/11/2
f 340/11/2 339/11/2 341/11/2
f 342/11/2 343/11/2 345/11/2
f 345/11/2 343/11/2 346/11/2
f 344/11/2 345/11/2 348/11/2
f 347/6/2 348/6/2 350/6/2
f 348/11/2 345/11/2 351/11/2
f 350/6/2 348/6/2 351/6/2
f 349/6/2 350/6/2 353/6/2
f 350/10/2 351/10/2 354/10/2
f 353/6/2 350/6/2 354/6/2
f 352/6/2 353/6/2 356/6/2
f 353/10/2 354/10/2 357/10/2
f 356/6/2 353/6/2 357/6/2
f 355/6/2 356/6/2 359/6/2
f 356/10/2 357/10/2 360/10/2
f 359/6/2 356/6/2 360/6/2
f 354/10/2 351/10/2 361/10/2
f 360/10/2 357/10/2 361/10/2
f 357/10/2 354/10/2 361/10/2
f 351/11/2 345/11/2 362/11/2
f 361/10/2 351/10/2 362/10/2
f 362/11/2 345/11/2 363/11/2
f 358/6/2 359/6/2 366/6/2
f 360/10/2 361/10/2 367/10/2
f 359/10/2 360/10/2 367/10/2
f 366/6/2 359/6/2 367/6/2
f 367/10/2 361/10/2 368/10/2
f 361/11/2 362/11/2 369/11/2
f 368/10/2 361/10/2 369/10/2
f 369/11/2 362/11/2 370/11/2
f 365/6/2 366/6/2 371/6/2
f 364/9/2 365/9/2 371/9/2
f 367/10/2 368/10/2 372/10/2
f 371/6/2 366/6/2 372/6/2
f 366/10/2 367/10/2 372/10/2
f 372/10/2 368/10/2 373/10/2
f 368/11/2 369/11/2 374/11/2
f 373/10/2 368/10/2 374/10/2
f 374/11/2 369/11/2 375/11/2
f 372/10/2 373/10/2 376/10/2
f 371/10/2 372/10/2 376/10/2
f 373/11/2 374/11/2 377/11/2
f 376/10/2 373/10/2 377/10/2
f 377/11/2 374/11/2 378/11/2
f 371/10/2 376/10/2 379/10/2
f 376/11/2 377/11/2 380/11/2
f 379/10/2 376/10/2 380/10/2
f 380/11/2 377/11/2 381/11/2
f 371/10/2 379/10/2 382/10/2
f 379/11/2 380/11/2 383/11/2
f 382/10/2 379/10/2 383/10/2
f 383/11/2 380/11/2 384/11/2
f 371/10/2 382/10/2 385/10/2
f 382/11/2 383/11/2 386/11/2
f 385/10/2 382/10/2 386/10/2
f 386/11/2 383/11/2 387/11/2
f 371/10/2 385/10/2 388/10/2
f 385/11/2 386/11/2 389/11/2
f 388/10/2 385/10/2 389/10/2
f 389/11/2 386/11/2 390/11/2
f 364/9/2 371/9/2 391/9/2
f 371/10/2 388/10/2 391/10/2
f 388/11/2 389/11/2 392/11/2
f 391/10/2 388/10/2 392/10/2
f 392/11/2 389/11/2 393/11/2
f 364/9/2 391/9/2 394/9/2
f 391/11/2 392/11/2 395/11/2
f 394/9/2 391/9/2 395/9/2
f 395/11/2 392/11/2 396/11/2
f 397/3/2 398/3/2 399/3/2
f 399/3/2 398/3/2 400/3/2
f 403/1/3 402/1/3 401/1/3
f 404/1/3 402/1/3 403/1/3
f 407/1/3 406/1/3 405/1/3
f 408/1/3 406/1/3 407/1/3
f 411/1/3 410/1/3 409/1/3
f 412/1/3 410/1/3 411/1/3
f 417/9/3 416/9/3 415/9/3
f 418/9/3 416/9/3 417/9/3
f 419/10/3 418/10/3 417/10/3
f 420/10/3 418/10/3 419/10/3
f 421/10/3 419/10/3 417/10/3
f 422/7/3 420/7/3 419/7/3
f 422/10/3 419/10/3 421/10/3
f 423/10/3 418/10/3 420/10/3
f 423/7/3 420/7/3 422/7/3
f 424/10/3 418/10/3 423/10/3
f 425/10/3 421/10/3 417/10/3
f 426/7/3 422/7/3 421/7/3
f 426/10/3 421/10/3 425/10/3
f 426/7/3 423/7/3 422/7/3
f 426/7/3 424/7/3 423/7/3
f 427/10/3 425/10/3 417/10/3
f 427/7/3 426/7/3 425/7/3
f 428/7/3 424/7/3 426/7/3
f 428/7/3 426/7/3 427/7/3
f 429/10/3 418/10/3 424/10/3
f 429/7/3 424/7/3 428/7/3
f 430/10/3 418/10/3 429/10/3
f 431/7/3 429/7/3 428/7/3
f 431/7/3 430/7/3 429/7/3
f 432/10/3 418/10/3 430/10/3
f 432/7/3 430/7/3 431/7/3
f 433/10/3 428/10/3 427/10/3
f 433/7/3 431/7/3 428/7/3
f 434/7/3 431/7/3 433/7/3
f 435/7/3 431/7/3 434/7/3
f 436/10/3 432/10/3 431/10/3
f 436/7/3 431/7/3 435/7/3
f 437/10/3 433/10/3 427/10/3
f 437/10/3 434/10/3 433/10/3
f 438/7/3 435/7/3 434/7/3
f 438/10/3 434/10/3 437/10/3
f 439/10/3 436/10/3 435/10/3
f 439/7/3 435/7/3 438/7/3
f 440/10/3 432/10/3 436/10/3
f 440/10/3 436/10/3 439/10/3
f 441/10/3 437/10/3 427/10/3
f 441/7/3 439/7/3 438/7/3
f 441/7/3 440/7/3 439/7/3
f 441/7/3 438/7/3 437/7/3
f 442/10/3 432/10/3 440/10/3
f 442/7/3 440/7/3 441/7/3
f 443/10/3 418/10/3 432/10/3
f 443/10/3 432/10/3 442/10/3
f 443/10/3 442/10/3 441/10/3
f 444/10/3 443/10/3 441/10/3
f 445/10/3 427/10/3 417/10/3
f 445/10/3 441/10/3 427/10/3
f 445/10/3 444/10/3 441/10/3
f 446/10/3 444/10/3 445/10/3
f 447/10/3 444/10/3 446/10/3
f 448/10/3 444/10/3 447/10/3
f 449/10/3 444/10/3 448/10/3
f 450/10/3 444/10/3 449/10/3
f 451/10/3 445/10/3 417/10/3
f 452/7/3 446/7/3 445/7/3
f 452/10/3 445/10/3 451/10/3
f 453/10/3 447/10/3 446/10/3
f 453/7/3 446/7/3 452/7/3
f 454/7/3 448/7/3 447/7/3
f 454/10/3 447/10/3 453/10/3
f 455/10/3 449/10/3 448/10/3
f 455/7/3 448/7/3 454/7/3
f 456/7/3 450/7/3 449/7/3
f 456/10/3 449/10/3 455/10/3
f 457/7/3 452/7/3 451/7/3
f 458/10/3 453/10/3 452/10/3
f 458/7/3 452/7/3 457/7/3
f 459/7/3 454/7/3 453/7/3
f 459/10/3 453/10/3 458/10/3
f 459/7/3 455/7/3 454/7/3
f 459/7/3 456/7/3 455/7/3
f 460/7/3 456/7/3 459/7/3
f 461/7/3 456/7/3 460/7/3
f 462/7/3 450/7/3 456/7/3
f 462/7/3 456/7/3 461/7/3
f 463/7/3 461/7/3 460/7/3
f 463/10/3 458/10/3 457/10/3
f 463/10/3 459/10/3 458/10/3
f 463/10/3 460/10/3 459/10/3
f 464/10/3 462/10/3 461/10/3
f 464/7/3 461/7/3 463/7/3
f 465/7/3 450/7/3 462/7/3
f 465/10/3 462/10/3 464/10/3
f 466/10/3 444/10/3 450/10/3
f 466/7/3 450/7/3 465/7/3
f 467/10/3 465/10/3 464/10/3
f 467/10/3 464/10/3 463/10/3
f 467/10/3 466/10/3 465/10/3
f 467/10/3 463/10/3 457/10/3
f 468/10/3 466/10/3 467/10/3
f 469/10/3 467/10/3 457/10/3
f 469/7/3 468/7/3 467/7/3
f 470/10/3 466/10/3 468/10/3
f 470/7/3 468/7/3 469/7/3
f 471/10/3 466/10/3 470/10/3
f 472/10/3 469/10/3 457/10/3
f 472/10/3 470/10/3 469/10/3
f 473/7/3 471/7/3 470/7/3
f 473/10/3 470/10/3 472/10/3
f 474/10/3 466/10/3 471/10/3
f 474/7/3 471/7/3 473/7/3
f 475/10/3 444/10/3 466/10/3
f 475/10/3 466/10/3 474/10/3
f 476/10/3 444/10/3 475/10/3
f 477/7/3 473/7/3 472/7/3
f 477/10/3 472/10/3 457/10/3
f 478/10/3 474/10/3 473/10/3
f 478/7/3 473/7/3 477/7/3
f 479/10/3 474/10/3 478/10/3
f 480/7/3 475/7/3 474/7/3
f 480/10/3 474/10/3 479/10/3
f 481/10/3 476/10/3 475/10/3
f 481/7/3 475/7/3 480/7/3
f 482/10/3 476/10/3 481/10/3
f 483/10/3 477/10/3 457/10/3
f 483/10/3 478/10/3 477/10/3
f 484/7/3 479/7/3 478/7/3
f 484/10/3 478/10/3 483/10/3
f 485/10/3 480/10/3 479/10/3
f 485/7/3 479/7/3 484/7/3
f 485/10/3 482/10/3 481/10/3
f 485/10/3 481/10/3 480/10/3
f 486/7/3 484/7/3 483/7/3
f 486/10/3 483/10/3 457/10/3
f 487/10/3 485/10/3 484/10/3
f 487/7/3 484/7/3 486/7/3
f 488/10/3 486/10/3 457/10/3
f 488/10/3 487/10/3 486/10/3
f 489/10/3 485/10/3 487/10/3
f 489/10/3 487/10/3 488/10/3
f 490/10/3 482/10/3 485/10/3
f 490/10/3 485/10/3 489/10/3
f 491/10/3 482/10/3 490/10/3
f 492/10/3 482/10/3 491/10/3
f 493/10/3 482/10/3 492/10/3
f 494/10/3 488/10/3 457/10/3
f 495/7/3 489/7/3 488/7/3
f 495/10/3 488/10/3 494/10/3
f 496/10/3 490/10/3 489/10/3
f 496/7/3 489/7/3 495/7/3
f 497/7/3 491/7/3 490/7/3
f 497/10/3 490/10/3 496/10/3
f 498/10/3 492/10/3 491/10/3
f 498/7/3 491/7/3 497/7/3
f 499/7/3 493/7/3 492/7/3
f 499/10/3 492/10/3 498/10/3
f 500/7/3 495/7/3 494/7/3
f 501/10/3 496/10/3 495/10/3
f 501/7/3 495/7/3 500/7/3
f 502/7/3 497/7/3 496/7/3
f 502/10/3 496/10/3 501/10/3
f 502/7/3 498/7/3 497/7/3
f 502/7/3 499/7/3 498/7/3
f 503/7/3 499/7/3 502/7/3
f 504/7/3 499/7/3 503/7/3
f 505/7/3 493/7/3 499/7/3
f 505/7/3 499/7/3 504/7/3
f 506/7/3 504/7/3 503/7/3
f 506/10/3 501/10/3 500/10/3
f 506/10/3 502/10/3 501/10/3
f 506/10/3 503/10/3 502/10/3
f 507/10/3 505/10/3 504/10/3
f 507/7/3 504/7/3 506/7/3
f 508/7/3 493/7/3 505/7/3
f 508/10/3 505/10/3 507/10/3
f 509/10/3 482/10/3 493/10/3
f 509/7/3 493/7/3 508/7/3
f 510/10/3 482/10/3 509/10/3
f 511/10/3 508/10/3 507/10/3
f 511/10/3 507/10/3 506/10/3
f 511/7/3 510/7/3 509/7/3
f 511/10/3 509/10/3 508/10/3
f 512/10/3 482/10/3 510/10/3
f 512/7/3 510/7/3 511/7/3
f 513/10/3 482/10/3 512/10/3
f 514/10/3 511/10/3 506/10/3
f 514/10/3 506/10/3 500/10/3
f 514/10/3 513/10/3 512/10/3
f 514/10/3 512/10/3 511/10/3
f 515/10/3 513/10/3 514/10/3
f 516/10/3 513/10/3 515/10/3
f 517/10/3 514/10/3 500/10/3
f 518/7/3 515/7/3 514/7/3
f 518/10/3 514/10/3 517/10/3
f 519/10/3 516/10/3 515/10/3
f 519/7/3 515/7/3 518/7/3
f 520/10/3 516/10/3 519/10/3
f 521/7/3 518/7/3 517/7/3
f 522/10/3 519/10/3 518/10/3
f 522/7/3 518/7/3 521/7/3
f 523/7/3 520/7/3 519/7/3
f 523/10/3 519/10/3 522/10/3
f 524/10/3 516/10/3 520/10/3
f 524/7/3 520/7/3 523/7/3
f 525/10/3 516/10/3 524/10/3
f 526/7/3 523/7/3 522/7/3
f 526/10/3 522/10/3 521/10/3
f 527/10/3 524/10/3 523/10/3
f 527/7/3 523/7/3 526/7/3
f 528/7/3 525/7/3 524/7/3
f 528/10/3 524/10/3 527/10/3
f 529/10/3 516/10/3 525/10/3
f 529/7/3 525/7/3 528/7/3
f 530/10/3 528/10/3 527/10/3
f 530/10/3 527/10/3 526/10/3
f 530/10/3 529/10/3 528/10/3
f 530/10/3 526/10/3 521/10/3
f 531/10/3 516/10/3 529/10/3
f 531/10/3 529/10/3 530/10/3
f 532/9/3 531/9/3 530/9/3
f 533/9/3 531/9/3 532/9/3
f 534/3/3 414/3/3 413/3/3
f 535/3/3 414/3/3 534/3/3
f 538/5/3 537/5/3 536/5/3
f 539/5/3 537/5/3 538/5/3
f 540/2/3 539/2/3 538/2/3
f 541/5/3 537/5/3 539/5/3
f 541/2/3 539/2/3 540/2/3
f 542/5/3 541/5/3 540/5/3
f 543/5/3 537/5/3 541/5/3
f 543/5/3 541/5/3 542/5/3
f 544/2/3 543/2/3 542/2/3
f 545/5/3 537/5/3 543/5/3
f 545/2/3 543/2/3 544/2/3
f 546/5/3 545/5/3 544/5/3
f 547/5/3 537/5/3 545/5/3
f 547/5/3 545/5/3 546/5/3
f 548/2/3 547/2/3 546/2/3
f 549/5/3 537/5/3 547/5/3
f 549/2/3 547/2/3 548/2/3
f 550/5/3 549/5/3 548/5/3
f 551/5/3 537/5/3 549/5/3
f 551/5/3 549/5/3 550/5/3
f 552/2/3 551/2/3 550/2/3
f 553/5/3 537/5/3 551/5/3
f 553/2/3 551/2/3 552/2/3
f 554/5/3 553/5/3 552/5/3
f 555/5/3 537/5/3 553/5/3
f 555/5/3 553/5/3 554/5/3
f 558/6/3 557/6/3 556/6/3
f 559/6/3 557/6/3 558/6/3
f 562/11/3 561/11/3 560/11/3
f 563/11/3 561/11/3 562/11/3
f 566/4/3 565/4/3 564/4/3
f 567/4/3 565/4/3 566/4/3
f 572/11/3 569/11/3 568/11/3
f 573/11/3 569/11/3 572/11/3
f 574/6/3 571/6/3 570/6/3
f 575/6/3 571/6/3 574/6/3
f 578/11/3 577/11/3 576/11/3
f 579/11/3 577/11/3 578/11/3
f 580/10/3 579/10/3 578/10/3
f 581/10/3 579/10/3 580/10/3
f 582/11/3 581/11/3 580/11/3
f 583/11/3 581/11/3 582/11/3
f 588/11/3 585/11/3 584/11/3
f 588/11/3 587/11/3 586/11/3
f 588/11/3 586/11/3 585/11/3
f 589/11/3 587/11/3 588/11/3
f 592/11/3 591/11/3 590/11/3
f 593/11/3 591/11/3 592/11/3
f 594/11/3 591/11/3 593/11/3
f 595/11/3 591/11/3 594/11/3
f 598/6/3 597/6/3 596/6/3
f 599/6/3 597/6/3 598/6/3
f 602/11/3 601/11/3 600/11/3
f 603/11/3 601/11/3 602/11/3
f 604/10/3 603/10/3 602/10/3
f 605/10/3 603/10/3 604/10/3
f 608/11/3 605/11/3 604/11/3
f 609/11/3 605/11/3 608/11/3
f 610/6/3 607/6/3 606/6/3
f 611/6/3 607/6/3 610/6/3
f 615/1/3 613/1/3 612/1/3
f 616/11/3 614/11/3 613/11/3
f 616/1/3 613/1/3 615/1/3
f 617/11/3 614/11/3 616/11/3
f 621/1/3 619/1/3 618/1/3
f 622/11/3 620/11/3 619/11/3
f 622/1/3 619/1/3 621/1/3
f 623/11/3 620/11/3 622/11/3
f 627/1/3 625/1/3 624/1/3
f 628/11/3 626/11/3 625/11/3
f 628/1/3 625/1/3 627/1/3
f 629/11/3 626/11/3 628/11/3
f 632/11/3 631/11/3 630/11/3
f 633/11/3 631/11/3 632/11/3
f 634/10/3 633/10/3 632/10/3
f 635/10/3 633/10/3 634/10/3
f 638/10/3 637/10/3 636/10/3
f 639/10/3 637/10/3 638/10/3
f 642/10/3 641/10/3 640/10/3
f 643/10/3 641/10/3 642/10/3
f 646/10/3 645/10/3 644/10/3
f 647/10/3 645/10/3 646/10/3
f 648/11/3 647/11/3 646/11/3
f 649/11/3 647/11/3 648/11/3
f 652/6/3 651/6/3 650/6/3
f 653/6/3 651/6/3 652/6/3
f 656/11/3 655/11/3 654/11/3
f 657/11/3 655/11/3 656/11/3
f 662/11/3 659/11/3 658/11/3
f 663/11/3 659/11/3 662/11/3
f 664/6/3 661/6/3 660/6/3
f 665/6/3 661/6/3 664/6/3
f 668/11/3 667/11/3 666/11/3
f 669/11/3 667/11/3 668/11/3
f 670/10/3 669/10/3 668/10/3
f 671/10/3 669/10/3 670/10/3
f 672/11/3 671/11/3 670/11/3
f 673/11/3 671/11/3 672/11/3
f 677/10/3 675/10/3 674/10/3
f 678/4/3 676/4/3 675/4/3
f 678/10/3 675/10/3 677/10/3
f 679/4/3 676/4/3 678/4/3
f 686/11/3 681/11/3 680/11/3
f 686/11/3 682/11/3 681/11/3
f 686/11/3 683/11/3 682/11/3
f 687/11/3 683/11/3 686/11/3
f 688/11/3 685/11/3 684/11/3
f 689/11/3 685/11/3 688/11/3
f 692/10/3 689/10/3 688/10/3
f 693/10/3 689/10/3 692/10/3
f 694/11/3 691/11/3 690/11/3
f 695/11/3 691/11/3 694/11/3
f 696/11/3 691/11/3 695/11/3
f 697/11/3 691/11/3 696/11/3
f 698/11/3 693/11/3 692/11/3
f 699/11/3 693/11/3 698/11/3
f 702/6/3 701/6/3 700/6/3
f 703/6/3 701/6/3 702/6/3
f 706/10/3 705/10/3 704/10/3
f 707/10/3 705/10/3 706/10/3
f 710/6/3 709/6/3 708/6/3
f 711/6/3 709/6/3 710/6/3
f 714/10/3 713/10/3 712/10/3
f 715/10/3 713/10/3 714/10/3
f 718/6/3 717/6/3 716/6/3
f 719/6/3 717/6/3 718/6/3
f 722/6/3 721/6/3 720/6/3
f 723/6/3 721/6/3 722/6/3
f 726/10/3 725/10/3 724/10/3
f 727/10/3 725/10/3 726/10/3
f 730/11/3 729/11/3 728/11/3
f 731/11/3 729/11/3 730/11/3
f 734/9/3 731/9/3 730/9/3
f 734/9/3 733/9/3 732/9/3
f 734/9/3 732/9/3 731/9/3
f 735/9/3 733/9/3 734/9/3
f 736/8/3 735/8/3 734/8/3
f 737/8/3 735/8/3 736/8/3
f 738/9/3 737/9/3 736/9/3
f 739/9/3 737/9/3 738/9/3
f 740/8/3 739/8/3 738/8/3
f 741/8/3 739/8/3 740/8/3
f 742/9/3 741/9/3 740/9/3
f 743/9/3 741/9/3 742/9/3
f 744/8/3 743/8/3 742/8/3
f 745/8/3 743/8/3 744/8/3
f 746/9/3 745/9/3 744/9/3
f 747/9/3 745/9/3 746/9/3
f 748/8/3 747/8/3 746/8/3
f 749/8/3 747/8/3 748/8/3
f 750/9/3 749/9/3 748/9/3
f 751/9/3 749/9/3 750/9/3
f 752/8/3 751/8/3 750/8/3
f 753/8/3 751/8/3 752/8/3
f 754/9/3 753/9/3 752/9/3
f 755/9/3 753/9/3 754/9/3
f 756/8/3 755/8/3 754/8/3
f 757/8/3 755/8/3 756/8/3
f 758/9/3 757/9/3 756/9/3
f 759/9/3 757/9/3 758/9/3
f 760/8/3 759/8/3 758/8/3
f 761/8/3 759/8/3 760/8/3
f 762/8/3 759/8/3 761/8/3
f 763/8/3 759/8/3 762/8/3
f 764/11/3 761/11/3 760/11/3
f 765/11/3 761/11/3 764/11/3
f 768/11/3 767/11/3 766/11/3
f 769/11/3 767/11/3 768/11/3
f 770/9/3 769/9/3 768/9/3
f 771/9/3 769/9/3 770/9/3
f 772/8/3 771/8/3 770/8/3
f 773/8/3 771/8/3 772/8/3
f 774/9/3 773/9/3 772/9/3
f 775/9/3 773/9/3 774/9/3
f 776/8/3 775/8/3 774/8/3
f 777/8/3 775/8/3 776/8/3
f 778/9/3 777/9/3 776/9/3
f 779/9/3 777/9/3 778/9/3
f 780/8/3 779/8/3 778/8/3
f 781/8/3 779/8/3 780/8/3
f 782/9/3 781/9/3 780/9/3
f 783/9/3 781/9/3 782/9/3
f 784/8/3 783/8/3 782/8/3
f 785/8/3 783/8/3 784/8/3
f 786/9/3 785/9/3 784/9/3
f 787/9/3 785/9/3 786/9/3
f 788/8/3 787/8/3 786/8/3
f 789/8/3 787/8/3 788/8/3
f 790/9/3 789/9/3 788/9/3
f 791/9/3 789/9/3 790/9/3
f 792/8/3 791/8/3 790/8/3
f 793/8/3 791/8/3 792/8/3
f 794/9/3 793/9/3 792/9/3
f 795/9/3 793/9/3 794/9/3
f 796/8/3 795/8/3 794/8/3
f 797/8/3 795/8/3 796/8/3
f 798/11/3 797/11/3 796/11/3
f 799/11/3 797/11/3 798/11/3
f 800/10/4 801/10/4 805/10/4
f 801/10/4 802/10/4 805/10/4
f 803/10/4 804/10/4 806/10/4
f 800/10/4 805/10/4 807/10/4
f 805/10/4 806/10/4 807/10/4
f 807/10/4 806/10/4 808/10/4
f 800/10/4 807/10/4 809/10/4
f 807/7/4 808/7/4 810/7/4
f 809/10/4 807/10/4 810/10/4
f 808/10/4 806/10/4 811/10/4
f 810/7/4 808/7/4 811/7/4
f 806/10/4 804/10/4 812/10/4
f 811/10/4 806/10/4 812/10/4
f 800/10/4 809/10/4 813/10/4
f 810/7/4 811/7/4 814/7/4
f 813/10/4 809/10/4 814/10/4
f 809/7/4 810/7/4 814/7/4
f 811/7/4 812/7/4 814/7/4
f 800/10/4 813/10/4 815/10/4
f 813/7/4 814/7/4 815/7/4
f 814/7/4 812/7/4 816/7/4
f 815/7/4 814/7/4 816/7/4
f 812/10/4 804/10/4 817/10/4
f 816/7/4 812/7/4 817/7/4
f 817/10/4 804/10/4 818/10/4
f 816/7/4 817/7/4 819/7/4
f 817/7/4 818/7/4 819/7/4
f 818/10/4 804/10/4 820/10/4
f 819/7/4 818/7/4 820/7/4
f 815/10/4 816/10/4 821/10/4
f 816/7/4 819/7/4 821/7/4
f 821/7/4 819/7/4 822/7/4
f 822/7/4 819/7/4 823/7/4
f 819/10/4 820/10/4 824/10/4
f 823/7/4 819/7/4 824/7/4
f 815/10/4 821/10/4 825/10/4
f 821/10/4 822/10/4 825/10/4
f 822/7/4 823/7/4 826/7/4
f 825/10/4 822/10/4 826/10/4
f 823/10/4 824/10/4 827/10/4
f 826/7/4 823/7/4 827/7/4
f 824/10/4 820/10/4 828/10/4
f 827/10/4 824/10/4 828/10/4
f 815/10/4 825/10/4 829/10/4
f 826/7/4 827/7/4 829/7/4
f 827/7/4 828/7/4 829/7/4
f 825/7/4 826/7/4 829/7/4
f 828/10/4 820/10/4 830/10/4
f 829/7/4 828/7/4 830/7/4
f 831/11/4 832/11/4 833/11/4
f 833/11/4 832/11/4 834/11/4
f 800/10/4 815/10/4 835/10/4
f 815/10/4 829/10/4 835/10/4
f 829/10/4 830/10/4 835/10/4
f 835/10/4 830/10/4 836/10/4
f 836/10/4 830/10/4 837/10/4
f 837/10/4 830/10/4 838/10/4
f 830/10/4 820/10/4 839/10/4
f 838/10/4 830/10/4 839/10/4
f 820/10/4 804/10/4 840/10/4
f 839/10/4 820/10/4 840/10/4
f 800/10/4 835/10/4 841/10/4
f 835/7/4 836/7/4 842/7/4
f 841/10/4 835/10/4 842/10/4
f 836/10/4 837/10/4 843/10/4
f 842/7/4 836/7/4 843/7/4
f 837/7/4 838/7/4 844/7/4
f 843/10/4 837/10/4 844/10/4
f 838/10/4 839/10/4 845/10/4
f 844/7/4 838/7/4 845/7/4
f 839/7/4 840/7/4 846/7/4
f 845/10/4 839/10/4 846/10/4
f 841/7/4 842/7/4 847/7/4
f 842/10/4 843/10/4 848/10/4
f 847/7/4 842/7/4 848/7/4
f 843/7/4 844/7/4 849/7/4
f 848/10/4 843/10/4 849/10/4
f 844/7/4 845/7/4 849/7/4
f 845/7/4 846/7/4 849/7/4
f 849/7/4 846/7/4 850/7/4
f 850/7/4 846/7/4 851/7/4
f 846/7/4 840/7/4 852/7/4
f 851/7/4 846/7/4 852/7/4
f 847/10/4 848/10/4 853/10/4
f 850/7/4 851/7/4 853/7/4
f 848/10/4 849/10/4 853/10/4
f 849/10/4 850/10/4 853/10/4
f 851/10/4 852/10/4 854/10/4
f 853/7/4 851/7/4 854/7/4
f 852/7/4 840/7/4 855/7/4
f 854/10/4 852/10/4 855/10/4
f 840/10/4 804/10/4 856/10/4
f 855/7/4 840/7/4 856/7/4
f 853/10/4 854/10/4 857/10/4
f 854/10/4 855/10/4 857/10/4
f 855/10/4 856/10/4 857/10/4
f 847/10/4 853/10/4 857/10/4
f 857/10/4 856/10/4 858/10/4
f 847/10/4 857/10/4 859/10/4
f 857/7/4 858/7/4 859/7/4
f 858/10/4 856/10/4 860/10/4
f 859/7/4 858/7/4 860/7/4
f 860/10/4 856/10/4 861/10/4
f 847/10/4 859/10/4 862/10/4
f 859/10/4 860/10/4 862/10/4
f 860/7/4 861/7/4 863/7/4
f 862/10/4 860/10/4 863/10/4
f 861/10/4 856/10/4 864/10/4
f 863/7/4 861/7/4 864/7/4
f 856/10/4 804/10/4 865/10/4
f 864/10/4 856/10/4 865/10/4
f 862/7/4 863/7/4 868/7/4
f 847/10/4 862/10/4 868/10/4
f 863/10/4 864/10/4 869/10/4
f 868/7/4 863/7/4 869/7/4
f 869/10/4 864/10/4 870/10/4
f 864/7/4 865/7/4 871/7/4
f 870/10/4 864/10/4 871/10/4
f 865/10/4 804/10/4 872/10/4
f 871/7/4 865/7/4 872/7/4
f 866/11/4 867/11/4 873/11/4
f 873/11/4 867/11/4 874/11/4
f 847/10/4 868/10/4 875/10/4
f 868/10/4 869/10/4 875/10/4
f 869/7/4 870/7/4 876/7/4
f 875/10/4 869/10/4 876/10/4
f 870/10/4 871/10/4 877/10/4
f 876/7/4 870/7/4 877/7/4
f 871/10/4 872/10/4 877/10/4
f 875/7/4 876/7/4 878/7/4
f 847/10/4 875/10/4 878/10/4
f 876/10/4 877/10/4 879/10/4
f 878/7/4 876/7/4 879/7/4
f 847/10/4 878/10/4 880/10/4
f 878/10/4 879/10/4 880/10/4
f 879/10/4 877/10/4 881/10/4
f 880/10/4 879/10/4 881/10/4
f 877/10/4 872/10/4 882/10/4
f 881/10/4 877/10/4 882/10/4
f 882/10/4 872/10/4 883/10/4
f 883/10/4 872/10/4 884/10/4
f 872/10/4 804/10/4 885/10/4
f 884/10/4 872/10/4 885/10/4
f 847/10/4 880/10/4 886/10/4
f 880/7/4 881/7/4 887/7/4
f 886/10/4 880/10/4 887/10/4
f 881/10/4 882/10/4 888/10/4
f 887/7/4 881/7/4 888/7/4
f 882/7/4 883/7/4 889/7/4
f 888/10/4 882/10/4 889/10/4
f 883/10/4 884/10/4 890/10/4
f 889/7/4 883/7/4 890/7/4
f 884/7/4 885/7/4 891/7/4
f 890/10/4 884/10/4 891/10/4
f 886/7/4 887/7/4 892/7/4
f 887/10/4 888/10/4 893/10/4
f 892/7/4 887/7/4 893/7/4
f 888/7/4 889/7/4 894/7/4
f 893/10/4 888/10/4 894/10/4
f 889/7/4 890/7/4 894/7/4
f 890/7/4 891/7/4 894/7/4
f 894/7/4 891/7/4 895/7/4
f 895/7/4 891/7/4 896/7/4
f 891/7/4 885/7/4 897/7/4
f 896/7/4 891/7/4 897/7/4
f 892/10/4 893/10/4 898/10/4
f 895/7/4 896/7/4 898/7/4
f 893/10/4 894/10/4 898/10/4
f 894/10/4 895/10/4 898/10/4
f 896/10/4 897/10/4 899/10/4
f 898/7/4 896/7/4 899/7/4
f 897/7/4 885/7/4 900/7/4
f 899/10/4 897/10/4 900/10/4
f 885/10/4 804/10/4 901/10/4
f 900/7/4 885/7/4 901/7/4
f 901/10/4 804/10/4 902/10/4
f 898/10/4 899/10/4 903/10/4
f 899/10/4 900/10/4 903/10/4
f 901/7/4 902/7/4 903/7/4
f 900/10/4 901/10/4 903/10/4
f 903/7/4 902/7/4 904/7/4
f 903/10/4 904/10/4 907/10/4
f 892/10/4 898/10/4 907/10/4
f 898/10/4 903/10/4 907/10/4
f 907/10/4 904/10/4 908/10/4
f 905/11/4 906/11/4 909/11/4
f 909/11/4 906/11/4 910/11/4
f 892/10/4 907/10/4 911/10/4
f 907/7/4 908/7/4 912/7/4
f 911/10/4 907/10/4 912/10/4
f 908/10/4 904/10/4 913/10/4
f 912/7/4 908/7/4 913/7/4
f 913/10/4 904/10/4 914/10/4
f 911/7/4 912/7/4 915/7/4
f 912/10/4 913/10/4 916/10/4
f 915/7/4 912/7/4 916/7/4
f 913/7/4 914/7/4 917/7/4
f 916/10/4 913/10/4 917/10/4
f 914/10/4 904/10/4 918/10/4
f 917/7/4 914/7/4 918/7/4
f 918/10/4 904/10/4 919/10/4
f 916/7/4 917/7/4 920/7/4
f 915/10/4 916/10/4 920/10/4
f 917/10/4 918/10/4 921/10/4
f 920/7/4 917/7/4 921/7/4
f 918/7/4 919/7/4 922/7/4
f 921/10/4 918/10/4 922/10/4
f 919/10/4 904/10/4 923/10/4
f 922/7/4 919/7/4 923/7/4
f 921/10/4 922/10/4 924/10/4
f 923/10/4 904/10/4 924/10/4
f 922/10/4 923/10/4 924/10/4
f 920/10/4 921/10/4 924/10/4
f 924/10/4 904/10/4 925/10/4
f 925/10/4 904/10/4 926/10/4
f 915/10/4 920/10/4 927/10/4
f 920/10/4 924/10/4 927/10/4
f 927/10/4 924/10/4 928/10/4
f 928/10/4 924/10/4 929/10/4
f 925/10/4 926/10/4 930/10/4
f 930/10/4 926/10/4 931/10/4
f 932/11/4 933/11/4 936/11/4
f 936/11/4 933/11/4 937/11/4
f 934/5/4 935/5/4 938/5/4
f 938/5/4 935/5/4 939/5/4
f 940/5/4 941/5/4 942/5/4
f 942/5/4 941/5/4 943/5/4
f 944/11/4 945/11/4 946/11/4
f 946/11/4 945/11/4 947/11/4
f 948/11/4 949/11/4 950/11/4
f 950/11/4 949/11/4 951/11/4
f 950/10/4 951/10/4 952/10/4
f 953/10/4 954/10/4 956/10/4
f 954/4/4 955/4/4 957/4/4
f 956/10/4 954/10/4 957/10/4
f 957/4/4 955/4/4 958/4/4
f 952/10/4 951/10/4 959/10/4
f 959/10/4 951/10/4 960/10/4
f 959/11/4 960/11/4 961/11/4
f 961/11/4 960/11/4 962/11/4
f 965/11/4 966/11/4 971/11/4
f 966/11/4 967/11/4 971/11/4
f 967/11/4 968/11/4 971/11/4
f 971/11/4 968/11/4 972/11/4
f 969/11/4 970/11/4 973/11/4
f 973/11/4 970/11/4 974/11/4
f 963/11/4 964/11/4 975/11/4
f 975/11/4 964/11/4 976/11/4
f 975/10/4 976/10/4 981/10/4
f 981/10/4 976/10/4 982/10/4
f 977/11/4 978/11/4 983/11/4
f 983/11/4 978/11/4 984/11/4
f 984/11/4 978/11/4 985/11/4
f 985/11/4 978/11/4 986/11/4
f 979/11/4 980/11/4 987/11/4
f 987/11/4 980/11/4 988/11/4
f 981/11/4 982/11/4 989/11/4
f 989/11/4 982/11/4 990/11/4
f 991/11/4 992/11/4 993/11/4
f 993/11/4 992/11/4 994/11/4
f 995/1/4 996/1/4 998/1/4
f 996/11/4 997/11/4 999/11/4
f 998/1/4 996/1/4 999/1/4
f 999/11/4 997/11/4 1000/11/4
f 1001/1/4 1002/1/4 1004/1/4
f 1002/11/4 1003/11/4 1005/11/4
f 1004/1/4 1002/1/4 1005/1/4
f 1005/11/4 1003/11/4 1006/11/4
f 1007/1/4 1008/1/4 1010/1/4
f 1008/11/4 1009/11/4 1011/11/4
f 1010/1/4 1008/1/4 1011/1/4
f 1011/11/4 1009/11/4 1012/11/4
f 993/10/4 994/10/4 1013/10/4
f 1013/10/4 994/10/4 1014/10/4
f 1013/11/4 1014/11/4 1015/11/4
f 1015/11/4 1014/11/4 1016/11/4
f 1017/11/4 1018/11/4 1019/11/4
f 1019/11/4 1018/11/4 1020/11/4
f 1021/11/4 1022/11/4 1023/11/4
f 1023/11/4 1022/11/4 1024/11/4
f 1025/11/4 1026/11/4 1027/11/4
f 1027/11/4 1026/11/4 1028/11/4
f 1027/10/4 1028/10/4 1029/10/4
f 1029/10/4 1028/10/4 1030/10/4
f 1029/11/4 1030/11/4 1031/11/4
f 1031/11/4 1030/11/4 1032/11/4
f 1033/11/4 1034/11/4 1035/11/4
f 1035/11/4 1034/11/4 1036/11/4
f 1037/4/4 1038/4/4 1039/4/4
f 1039/4/4 1038/4/4 1040/4/4
f 1035/10/4 1036/10/4 1041/10/4
f 1041/10/4 1036/10/4 1042/10/4
f 1041/11/4 1042/11/4 1043/11/4
f 1043/11/4 1042/11/4 1044/11/4
f 1045/11/4 1046/11/4 1052/11/4
f 1047/5/4 1048/5/4 1053/5/4
f 1053/5/4 1048/5/4 1054/5/4
f 1050/11/4 1051/11/4 1055/11/4
f 1054/5/4 1048/5/4 1055/5/4
f 1048/11/4 1049/11/4 1055/11/4
f 1049/11/4 1050/11/4 1055/11/4
f 1055/11/4 1051/11/4 1056/11/4
f 1052/11/4 1046/11/4 1057/11/4
f 1057/11/4 1046/11/4 1058/11/4
f 1053/10/4 1054/10/4 1059/10/4
f 1059/10/4 1054/10/4 1060/10/4
f 1057/10/4 1058/10/4 1063/10/4
f 1063/10/4 1058/10/4 1064/10/4
f 1059/5/4 1060/5/4 1065/5/4
f 1060/5/4 1061/5/4 1065/5/4
f 1061/11/4 1062/11/4 1066/11/4
f 1065/5/4 1061/5/4 1066/5/4
f 1066/11/4 1062/11/4 1067/11/4
f 1067/11/4 1062/11/4 1068/11/4
f 1068/11/4 1062/11/4 1069/11/4
f 1063/11/4 1064/11/4 1070/11/4
f 1070/11/4 1064/11/4 1071/11/4
f 1071/11/4 1064/11/4 1072/11/4
f 1073/11/4 1074/11/4 1075/11/4
f 1075/11/4 1074/11/4 1076/11/4
f 1075/10/4 1076/10/4 1077/10/4
f 1077/10/4 1076/10/4 1078/10/4
f 1077/11/4 1078/11/4 1079/11/4
f 1079/11/4 1078/11/4 1080/11/4
f 1081/11/4 1082/11/4 1083/11/4
f 1083/11/4 1082/11/4 1084/11/4
f 1083/10/4 1084/10/4 1085/10/4
f 1085/10/4 1084/10/4 1086/10/4
f 1085/11/4 1086/11/4 1087/11/4
f 1087/11/4 1086/11/4 1088/11/4
f 1089/11/4 1090/11/4 1091/11/4
f 1091/11/4 1090/11/4 1092/11/4
f 1091/10/4 1092/10/4 1093/10/4
f 1093/10/4 1092/10/4 1094/10/4
f 1094/10/4 1092/10/4 1095/10/4
f 1095/10/4 1092/10/4 1096/10/4
f 1096/10/4 1092/10/4 1097/10/4
f 1097/10/4 1092/10/4 1098/10/4
f 1098/10/4 1092/10/4 1099/10/4
f 1099/10/4 1092/10/4 1100/10/4
f 1100/10/4 1092/10/4 1101/10/4
f 1101/10/4 1092/10/4 1102/10/4
f 1102/10/4 1092/10/4 1103/10/4
f 1103/10/4 1092/10/4 1104/10/4
f 1104/10/4 1092/10/4 1105/10/4
f 1105/10/4 1092/10/4 1106/10/4
f 1106/10/4 1092/10/4 1107/10/4
f 1106/11/4 1107/11/4 1108/11/4
f 1108/11/4 1107/11/4 1109/11/4
f 1110/11/4 1111/11/4 1112/11/4
f 1112/11/4 1111/11/4 1113/11/4
f 1112/9/4 1113/9/4 1114/9/4
f 1114/9/4 1113/9/4 1115/9/4
f 1114/8/4 1115/8/4 1116/8/4
f 1116/8/4 1115/8/4 1117/8/4
f 1116/9/4 1117/9/4 1118/9/4
f 1118/9/4 1117/9/4 1119/9/4
f 1118/8/4 1119/8/4 1120/8/4
f 1120/8/4 1119/8/4 1121/8/4
f 1120/9/4 1121/9/4 1122/9/4
f 1122/9/4 1121/9/4 1123/9/4
f 1122/8/4 1123/8/4 1124/8/4
f 1124/8/4 1123/8/4 1125/8/4
f 1124/9/4 1125/9/4 1126/9/4
f 1126/9/4 1125/9/4 1127/9/4
f 1126/8/4 1127/8/4 1128/8/4
f 1128/8/4 1127/8/4 1129/8/4
f 1128/9/4 1129/9/4 1130/9/4
f 1130/9/4 1129/9/4 1131/9/4
f 1130/8/4 1131/8/4 1132/8/4
f 1132/8/4 1131/8/4 1133/8/4
f 1132/9/4 1133/9/4 1134/9/4
f 1134/9/4 1133/9/4 1135/9/4
f 1134/8/4 1135/8/4 1136/8/4
f 1136/8/4 1135/8/4 1137/8/4
f 1136/9/4 1137/9/4 1138/9/4
f 1138/9/4 1137/9/4 1139/9/4
f 1138/8/4 1139/8/4 1140/8/4
f 1140/8/4 1139/8/4 1141/8/4
f 1140/11/4 1141/11/4 1142/11/4
f 1142/11/4 1141/11/4 1143/11/4
f 1144/11/4 1145/11/4 1146/11/4
f 1146/11/4 1145/11/4 1147/11/4
f 1146/9/4 1147/9/4 1148/9/4
f 1148/9/4 1147/9/4 1149/9/4
f 1148/8/4 1149/8/4 1150/8/4
f 1150/8/4 1149/8/4 1151/8/4
f 1150/9/4 1151/9/4 1152/9/4
f 1152/9/4 1151/9/4 1153/9/4
f 1152/8/4 1153/8/4 1154/8/4
f 1154/8/4 1153/8/4 1155/8/4
f 1154/9/4 1155/9/4 1156/9/4
f 1156/9/4 1155/9/4 1157/9/4
f 1156/8/4 1157/8/4 1158/8/4
f 1158/8/4 1157/8/4 1159/8/4
f 1158/9/4 1159/9/4 1160/9/4
f 1160/9/4 1159/9/4 1161/9/4
f 1160/8/4 1161/8/4 1162/8/4
f 1162/8/4 1161/8/4 1163/8/4
f 1162/9/4 1163/9/4 1164/9/4
f 1164/9/4 1163/9/4 1165/9/4
f 1164/8/4 1165/8/4 1166/8/4
f 1166/8/4 1165/8/4 1167/8/4
f 1166/9/4 1167/9/4 1168/9/4
f 1168/9/4 1167/9/4 1169/9/4
f 1168/8/4 1169/8/4 1170/8/4
f 1170/8/4 1169/8/4 1171/8/4
f 1170/9/4 1171/9/4 1172/9/4
f 1172/9/4 1171/9/4 1173/9/4
f 1172/8/4 1173/8/4 1174/8/4
f 1174/8/4 1173/8/4 1175/8/4
f 1174/11/4 1175/11/4 1176/11/4
f 1176/11/4 1175/11/4 1177/11/4
f 1178/3/4 1179/3/4 1180/3/4
f 1180/3/4 1179/3/4 1181/3/4
f 1184/3/5 1183/3/5 1182/3/5
f 1185/3/5 1183/3/5 1184/3/5
f 1203/11/5 1187/11/5 1186/11/5
f 1204/9/5 1188/9/5 1187/9/5
f 1204/11/5 1187/11/5 1203/11/5
f 1205/8/5 1189/8/5 1188/8/5
f 1205/9/5 1188/9/5 1204/9/5
f 1206/9/5 1190/9/5 1189/9/5
f 1206/8/5 1189/8/5 1205/8/5
f 1207/8/5 1191/8/5 1190/8/5
f 1207/9/5 1190/9/5 1206/9/5
f 1208/9/5 1192/9/5 1191/9/5
f 1208/8/5 1191/8/5 1207/8/5
f 1209/8/5 1193/8/5 1192/8/5
f 1209/9/5 1192/9/5 1208/9/5
f 1210/9/5 1194/9/5 1193/9/5
f 1210/8/5 1193/8/5 1209/8/5
f 1211/8/5 1195/8/5 1194/8/5
f 1211/9/5 1194/9/5 1210/9/5
f 1212/9/5 1196/9/5 1195/9/5
f 1212/8/5 1195/8/5 1211/8/5
f 1213/8/5 1197/8/5 1196/8/5
f 1213/9/5 1196/9/5 1212/9/5
f 1214/9/5 1198/9/5 1197/9/5
f 1214/8/5 1197/8/5 1213/8/5
f 1215/8/5 1199/8/5 1198/8/5
f 1215/9/5 1198/9/5 1214/9/5
f 1216/9/5 1200/9/5 1199/9/5
f 1216/8/5 1199/8/5 1215/8/5
f 1217/8/5 1201/8/5 1200/8/5
f 1217/9/5 1200/9/5 1216/9/5
f 1218/11/5 1202/11/5 1201/11/5
f 1218/8/5 1201/8/5 1217/8/5
f 1219/11/5 1202/11/5 1218/11/5
f 1224/6/5 1221/6/5 1220/6/5
f 1225/6/5 1221/6/5 1224/6/5
f 1226/6/5 1223/6/5 1222/6/5
f 1227/6/5 1223/6/5 1226/6/5
f 1232/6/5 1229/6/5 1228/6/5
f 1233/6/5 1229/6/5 1232/6/5
f 1234/6/5 1231/6/5 1230/6/5
f 1235/6/5 1231/6/5 1234/6/5
f 1240/6/5 1237/6/5 1236/6/5
f 1241/6/5 1239/6/5 1238/6/5
f 1242/6/5 1240/6/5 1236/6/5
f 1243/6/5 1240/6/5 1242/6/5
f 1244/6/5 1239/6/5 1241/6/5
f 1245/6/5 1239/6/5 1244/6/5
f 1250/6/5 1247/6/5 1246/6/5
f 1251/6/5 1247/6/5 1250/6/5
f 1252/6/5 1249/6/5 1248/6/5
f 1253/6/5 1249/6/5 1252/6/5
f 1258/6/5 1255/6/5 1254/6/5
f 1259/6/5 1257/6/5 1256/6/5
f 1260/6/5 1258/6/5 1254/6/5
f 1261/6/5 1258/6/5 1260/6/5
f 1262/6/5 1257/6/5 1259/6/5
f 1263/6/5 1257/6/5 1262/6/5
f 1266/10/5 1265/10/5 1264/10/5
f 1267/10/5 1265/10/5 1266/10/5
f 1268/10/5 1265/10/5 1267/10/5
f 1269/10/5 1265/10/5 1268/10/5
f 1270/10/5 1265/10/5 1269/10/5
f 1271/10/5 1265/10/5 1270/10/5
f 1272/10/5 1265/10/5 1271/10/5
f 1273/10/5 1265/10/5 1272/10/5
f 1274/10/5 1265/10/5 1273/10/5
f 1275/10/5 1265/10/5 1274/10/5
f 1276/10/5 1265/10/5 1275/10/5
f 1277/10/5 1265/10/5 1276/10/5
f 1278/10/5 1265/10/5 1277/10/5
f 1279/10/5 1265/10/5 1278/10/5
f 1280/10/5 1265/10/5 1279/10/5
f 1291/9/5 1282/9/5 1281/9/5
f 1292/10/5 1283/10/5 1282/10/5
f 1292/9/5 1282/9/5 1291/9/5
f 1293/7/5 1284/7/5 1283/7/5
f 1293/10/5 1283/10/5 1292/10/5
f 1294/10/5 1285/10/5 1284/10/5
f 1294/7/5 1284/7/5 1293/7/5
f 1295/7/5 1286/7/5 1285/7/5
f 1295/10/5 1285/10/5 1294/10/5
f 1296/10/5 1287/10/5 1286/10/5
f 1296/7/5 1286/7/5 1295/7/5
f 1297/7/5 1288/7/5 1287/7/5
f 1297/10/5 1287/10/5 1296/10/5
f 1298/10/5 1289/10/5 1288/10/5
f 1298/7/5 1288/7/5 1297/7/5
f 1299/9/5 1290/9/5 1289/9/5
f 1299/10/5 1289/10/5 1298/10/5
f 1300/9/5 1290/9/5 1299/9/5
f 1301/6/5 1292/6/5 1291/6/5
f 1302/6/5 1292/6/5 1301/6/5
f 1303/6/5 1300/6/5 1299/6/5
f 1304/6/5 1300/6/5 1303/6/5
f 1311/1/5 1306/1/5 1305/1/5
f 1312/1/5 1306/1/5 1311/1/5
f 1313/1/5 1308/1/5 1307/1/5
f 1314/1/5 1308/1/5 1313/1/5
f 1315/1/5 1310/1/5 1309/1/5
f 1316/1/5 1310/1/5 1315/1/5
f 1319/10/5 1318/10/5 1317/10/5
f 1320/10/5 1318/10/5 1319/10/5
f 1325/11/5 1322/11/5 1321/11/5
f 1326/11/5 1322/11/5 1325/11/5
f 1327/11/5 1324/11/5 1323/11/5
f 1328/11/5 1324/11/5 1327/11/5
f 1333/10/5 1330/10/5 1329/10/5
f 1333/10/5 1332/10/5 1331/10/5
f 1333/10/5 1331/10/5 1330/10/5
f 1334/10/5 1332/10/5 1333/10/5
f 1339/11/5 1336/11/5 1335/11/5
f 1340/11/5 1336/11/5 1339/11/5
f 1341/11/5 1338/11/5 1337/11/5
f 1342/11/5 1338/11/5 1341/11/5
f 1345/10/5 1344/10/5 1343/10/5
f 1346/10/5 1344/10/5 1345/10/5
f 1351/11/5 1348/11/5 1347/11/5
f 1352/11/5 1348/11/5 1351/11/5
f 1353/11/5 1350/11/5 1349/11/5
f 1354/11/5 1350/11/5 1353/11/5
f 1359/11/5 1356/11/5 1355/11/5
f 1360/10/5 1357/10/5 1356/10/5
f 1360/11/5 1356/11/5 1359/11/5
f 1361/11/5 1358/11/5 1357/11/5
f 1361/10/5 1357/10/5 1360/10/5
f 1362/11/5 1358/11/5 1361/11/5
f 1367/11/5 1364/11/5 1363/11/5
f 1368/11/5 1364/11/5 1367/11/5
f 1369/11/5 1366/11/5 1365/11/5
f 1370/11/5 1366/11/5 1369/11/5
f 1381/11/5 1372/11/5 1371/11/5
f 1382/10/5 1373/10/5 1372/10/5
f 1382/11/5 1372/11/5 1381/11/5
f 1382/10/5 1374/10/5 1373/10/5
f 1382/10/5 1379/10/5 1378/10/5
f 1382/10/5 1378/10/5 1377/10/5
f 1382/10/5 1377/10/5 1376/10/5
f 1382/10/5 1376/10/5 1375/10/5
f 1382/10/5 1375/10/5 1374/10/5
f 1383/11/5 1380/11/5 1379/11/5
f 1383/10/5 1379/10/5 1382/10/5
f 1384/11/5 1380/11/5 1383/11/5
f 1389/10/5 1387/10/5 1386/10/5
f 1390/10/5 1387/10/5 1389/10/5
f 1391/10/5 1387/10/5 1390/10/5
f 1392/10/5 1387/10/5 1391/10/5
f 1393/10/5 1387/10/5 1392/10/5
f 1394/10/5 1387/10/5 1393/10/5
f 1395/11/5 1386/11/5 1385/11/5
f 1396/10/5 1389/10/5 1386/10/5
f 1396/11/5 1386/11/5 1395/11/5
f 1397/10/5 1389/10/5 1396/10/5
f 1398/10/5 1391/10/5 1390/10/5
f 1399/10/5 1391/10/5 1398/10/5
f 1400/10/5 1393/10/5 1392/10/5
f 1401/10/5 1393/10/5 1400/10/5
f 1402/10/5 1387/10/5 1394/10/5
f 1403/11/5 1388/11/5 1387/11/5
f 1403/10/5 1387/10/5 1402/10/5
f 1404/11/5 1388/11/5 1403/11/5
f 1409/11/5 1406/11/5 1405/11/5
f 1410/10/5 1407/10/5 1406/10/5
f 1410/11/5 1406/11/5 1409/11/5
f 1411/11/5 1408/11/5 1407/11/5
f 1411/10/5 1407/10/5 1410/10/5
f 1412/11/5 1408/11/5 1411/11/5
f 1418/10/5 1414/10/5 1413/10/5
f 1418/10/5 1415/10/5 1414/10/5
f 1418/10/5 1416/10/5 1415/10/5
f 1419/10/5 1416/10/5 1418/10/5
f 1420/11/5 1417/11/5 1416/11/5
f 1420/10/5 1416/10/5 1419/10/5
f 1421/11/5 1417/11/5 1420/11/5
f 1428/1/5 1423/1/5 1422/1/5
f 1429/1/5 1423/1/5 1428/1/5
f 1430/1/5 1425/1/5 1424/1/5
f 1431/1/5 1425/1/5 1430/1/5
f 1432/1/5 1427/1/5 1426/1/5
f 1433/1/5 1427/1/5 1432/1/5
f 1434/3/6 1435/3/6 1436/3/6
f 1436/3/6 1435/3/6 1437/3/6
f 1437/3/6 1435/3/6 1438/3/6
f 1438/3/6 1435/3/6 1439/3/6
f 1439/3/6 1435/3/6 1440/3/6
f 1440/3/6 1435/3/6 1441/3/6
f 1441/3/6 1435/3/6 1442/3/6
f 1442/3/6 1435/3/6 1443/3/6
f 1443/3/6 1435/3/6 1444/3/6
f 1444/3/6 1435/3/6 1445/3/6
f 1434/3/6 1436/3/6 1446/3/6
f 1445/3/6 1435/3/6 1447/3/6
f 1434/3/6 1446/3/6 1448/3/6
f 1447/3/6 1435/3/6 1449/3/6
f 1434/3/6 1448/3/6 1450/3/6
f 1449/3/6 1435/3/6 1453/3/6
f 1451/3/6 1452/3/6 1454/3/6
f 1452/3/6 1453/3/6 1454/3/6
f 1434/3/6 1450/3/6 1454/3/6
f 1450/3/6 1451/3/6 1454/3/6
f 1454/3/6 1453/3/6 1455/3/6
f 1455/3/6 1453/3/6 1456/3/6
f 1456/3/6 1453/3/6 1457/3/6
f 1457/3/6 1453/3/6 1458/3/6
f 1458/3/6 1453/3/6 1459/3/6
f 1459/3/6 1453/3/6 1460/3/6
f 1460/3/6 1453/3/6 1461/3/6
f 1461/3/6 1453/3/6 1462/3/6
f 1462/3/6 1453/3/6 1463/3/6
f 1463/3/6 1453/3/6 1464/3/6
f 1464/3/6 1453/3/6 1465/3/6
f 1465/3/6 1453/3/6 1466/3/6
f 1466/3/6 1453/3/6 1467/3/6
f 1467/3/6 1453/3/6 1468/3/6
f 1453/3/6 1435/3/6 1469/3/6
f 1468/3/6 1453/3/6 1469/3/6
f 1469/3/6 1435/3/6 1470/3/6
f 1434/3/6 1454/3/6 1471/3/6
f 1470/3/6 1435/3/6 1487/3/6
f 1485/3/6 1486/3/6 1488/3/6
f 1486/3/6 1487/3/6 1488/3/6
f 1434/3/6 1471/3/6 1488/3/6
f 1471/3/6 1472/3/6 1488/3/6
f 1484/3/6 1485/3/6 1488/3/6
f 1483/3/6 1484/3/6 1488/3/6
f 1482/3/6 1483/3/6 1488/3/6
f 1481/3/6 1482/3/6 1488/3/6
f 1480/3/6 1481/3/6 1488/3/6
f 1479/3/6 1480/3/6 1488/3/6
f 1478/3/6 1479/3/6 1488/3/6
f 1477/3/6 1478/3/6 1488/3/6
f 1476/3/6 1477/3/6 1488/3/6
f 1475/3/6 1476/3/6 1488/3/6
f 1474/3/6 1475/3/6 1488/3/6
f 1473/3/6 1474/3/6 1488/3/6
f 1472/3/6 1473/3/6 1488/3/6
f 1487/3/6 1435/3/6 1489/3/6
f 1488/3/6 1487/3/6 1489/3/6
f 1490/10/6 1491/10/6 1492/10/6
f 1492/10/6 1491/10/6 1493/10/6
f 1494/10/6 1495/10/6 1498/10/6
f 1496/10/6 1497/10/6 1499/10/6
f 1494/10/6 1498/10/6 1500/10/6
f 1498/10/6 1499/10/6 1500/10/6
f 1499/10/6 1497/10/6 1501/10/6
f 1500/10/6 1499/10/6 1501/10/6
f 1502/5/6 1503/5/6 1504/5/6
f 1504/5/6 1503/5/6 1505/5/6
f 1505/5/6 1503/5/6 1506/5/6
f 1506/5/6 1503/5/6 1507/5/6
f 1502/5/6 1504/5/6 1508/5/6
f 1508/5/6 1504/5/6 1509/5/6
f 1507/5/6 1503/5/6 1510/5/6
f 1510/5/6 1503/5/6 1511/5/6
f 1512/5/6 1513/5/6 1516/5/6
f 1516/5/6 1513/5/6 1517/5/6
f 1514/5/6 1515/5/6 1518/5/6
f 1518/5/6 1515/5/6 1519/5/6
f 1520/4/6 1521/4/6 1522/4/6
f 1522/4/6 1521/4/6 1523/4/6
f 1520/4/6 1522/4/6 1524/4/6
f 1523/4/6 1521/4/6 1525/4/6
f 1520/4/6 1524/4/6 1526/4/6
f 1524/4/6 1525/4/6 1526/4/6
f 1525/4/6 1521/4/6 1527/4/6
f 1526/4/6 1525/4/6 1527/4/6
f 1528/11/6 1529/11/6 1545/11/6
f 1529/9/6 1530/9/6 1546/9/6
f 1545/11/6 1529/11/6 1546/11/6
f 1530/8/6 1531/8/6 1547/8/6
f 1546/9/6 1530/9/6 1547/9/6
f 1531/9/6 1532/9/6 1548/9/6
f 1547/8/6 1531/8/6 1548/8/6
f 1532/8/6 1533/8/6 1549/8/6
f 1548/9/6 1532/9/6 1549/9/6
f 1533/9/6 1534/9/6 1550/9/6
f 1549/8/6 1533/8/6 1550/8/6
f 1534/8/6 1535/8/6 1551/8/6
f 1550/9/6 1534/9/6 1551/9/6
f 1535/9/6 1536/9/6 1552/9/6
f 1551/8/6 1535/8/6 1552/8/6
f 1536/8/6 1537/8/6 1553/8/6
f 1552/9/6 1536/9/6 1553/9/6
f 1537/9/6 1538/9/6 1554/9/6
f 1553/8/6 1537/8/6 1554/8/6
f 1538/8/6 1539/8/6 1555/8/6
f 1554/9/6 1538/9/6 1555/9/6
f 1539/9/6 1540/9/6 1556/9/6
f 1555/8/6 1539/8/6 1556/8/6
f 1540/8/6 1541/8/6 1557/8/6
f 1556/9/6 1540/9/6 1557/9/6
f 1541/9/6 1542/9/6 1558/9/6
f 1557/8/6 1541/8/6 1558/8/6
f 1542/8/6 1543/8/6 1559/8/6
f 1558/9/6 1542/9/6 1559/9/6
f 1543/11/6 1544/11/6 1560/11/6
f 1559/8/6 1543/8/6 1560/8/6
f 1560/11/6 1544/11/6 1561/11/6
f 1562/11/6 1563/11/6 1579/11/6
f 1563/9/6 1564/9/6 1580/9/6
f 1579/11/6 1563/11/6 1580/11/6
f 1564/8/6 1565/8/6 1581/8/6
f 1580/9/6 1564/9/6 1581/9/6
f 1565/9/6 1566/9/6 1582/9/6
f 1581/8/6 1565/8/6 1582/8/6
f 1566/8/6 1567/8/6 1583/8/6
f 1582/9/6 1566/9/6 1583/9/6
f 1567/9/6 1568/9/6 1584/9/6
f 1583/8/6 1567/8/6 1584/8/6
f 1568/8/6 1569/8/6 1585/8/6
f 1584/9/6 1568/9/6 1585/9/6
f 1569/9/6 1570/9/6 1586/9/6
f 1585/8/6 1569/8/6 1586/8/6
f 1570/8/6 1571/8/6 1587/8/6
f 1586/9/6 1570/9/6 1587/9/6
f 1571/9/6 1572/9/6 1588/9/6
f 1587/8/6 1571/8/6 1588/8/6
f 1572/8/6 1573/8/6 1589/8/6
f 1588/9/6 1572/9/6 1589/9/6
f 1573/9/6 1574/9/6 1590/9/6
f 1589/8/6 1573/8/6 1590/8/6
f 1574/8/6 1575/8/6 1591/8/6
f 1590/9/6 1574/9/6 1591/9/6
f 1575/9/6 1576/9/6 1592/9/6
f 1591/8/6 1575/8/6 1592/8/6
f 1576/8/6 1577/8/6 1593/8/6
f 1592/9/6 1576/9/6 1593/9/6
f 1577/11/6 1578/11/6 1594/11/6
f 1593/8/6 1577/8/6 1594/8/6
f 1594/11/6 1578/11/6 1595/11/6
f 1596/11/6 1597/11/6 1600/11/6
f 1597/10/6 1598/10/6 1601/10/6
f 1600/11/6 1597/11/6 1601/11/6
f 1598/11/6 1599/11/6 1602/11/6
f 1601/10/6 1598/10/6 1602/10/6
f 1602/11/6 1599/11/6 1603/11/6
f 1604/11/6 1605/11/6 1608/11/6
f 1605/10/6 1606/10/6 1609/10/6
f 1608/11/6 1605/11/6 1609/11/6
f 1606/11/6 1607/11/6 1610/11/6
f 1609/10/6 1606/10/6 1610/10/6
f 1610/11/6 1607/11/6 1611/11/6
f 1612/11/6 1613/11/6 1616/11/6
f 1616/11/6 1613/11/6 1617/11/6
f 1614/11/6 1615/11/6 1618/11/6
f 1618/11/6 1615/11/6 1619/11/6
f 1620/11/6 1621/11/6 1626/11/6
f 1623/10/6 1624/10/6 1627/10/6
f 1626/11/6 1621/11/6 1627/11/6
f 1621/10/6 1622/10/6 1627/10/6
f 1622/10/6 1623/10/6 1627/10/6
f 1624/11/6 1625/11/6 1628/11/6
f 1627/10/6 1624/10/6 1628/10/6
f 1628/11/6 1625/11/6 1629/11/6
f 1630/11/6 1631/11/6 1634/11/6
f 1634/11/6 1631/11/6 1635/11/6
f 1632/11/6 1633/11/6 1636/11/6
f 1636/11/6 1633/11/6 1637/11/6
f 1638/11/6 1639/11/6 1642/11/6
f 1639/10/6 1640/10/6 1643/10/6
f 1642/11/6 1639/11/6 1643/11/6
f 1640/11/6 1641/11/6 1644/11/6
f 1643/10/6 1640/10/6 1644/10/6
f 1644/11/6 1641/11/6 1645/11/6
f 1646/11/6 1647/11/6 1650/11/6
f 1650/11/6 1647/11/6 1651/11/6
f 1648/11/6 1649/11/6 1652/11/6
f 1652/11/6 1649/11/6 1653/11/6
f 1654/11/6 1655/11/6 1658/11/6
f 1655/10/6 1656/10/6 1659/10/6
f 1658/11/6 1655/11/6 1659/11/6
f 1656/11/6 1657/11/6 1660/11/6
f 1659/10/6 1656/10/6 1660/10/6
f 1660/11/6 1657/11/6 1661/11/6
f 1662/11/6 1663/11/6 1666/11/6
f 1666/11/6 1663/11/6 1667/11/6
f 1664/11/6 1665/11/6 1668/11/6
f 1668/11/6 1665/11/6 1669/11/6
f 1670/11/6 1671/11/6 1674/11/6
f 1671/10/6 1672/10/6 1675/10/6
f 1674/11/6 1671/11/6 1675/11/6
f 1672/11/6 1673/11/6 1676/11/6
f 1675/10/6 1672/10/6 1676/10/6
f 1676/11/6 1673/11/6 1677/11/6
f 1678/11/6 1679/11/6 1682/11/6
f 1679/10/6 1680/10/6 1683/10/6
f 1682/11/6 1679/11/6 1683/11/6
f 1680/11/6 1681/11/6 1684/11/6
f 1683/10/6 1680/10/6 1684/10/6
f 1684/11/6 1681/11/6 1685/11/6
f 1686/11/6 1687/11/6 1691/11/6
f 1687/11/6 1688/11/6 1691/11/6
f 1688/10/6 1689/10/6 1692/10/6
f 1691/11/6 1688/11/6 1692/11/6
f 1689/11/6 1690/11/6 1693/11/6
f 1692/10/6 1689/10/6 1693/10/6
f 1693/11/6 1690/11/6 1694/11/6
f 1695/9/6 1696/9/6 1705/9/6
f 1696/10/6 1697/10/6 1706/10/6
f 1705/9/6 1696/9/6 1706/9/6
f 1706/10/6 1697/10/6 1707/10/6
f 1698/10/6 1699/10/6 1708/10/6
f 1708/10/6 1699/10/6 1709/10/6
f 1700/10/6 1701/10/6 1710/10/6
f 1710/10/6 1701/10/6 1711/10/6
f 1702/10/6 1703/10/6 1712/10/6
f 1712/10/6 1703/10/6 1713/10/6
f 1703/9/6 1704/9/6 1714/9/6
f 1713/10/6 1703/10/6 1714/10/6
f 1714/9/6 1704/9/6 1715/9/6
f 1705/11/6 1706/11/6 1716/11/6
f 1712/10/6 1713/10/6 1717/10/6
f 1716/11/6 1706/11/6 1717/11/6
f 1706/10/6 1707/10/6 1717/10/6
f 1708/10/6 1709/10/6 1717/10/6
f 1710/10/6 1711/10/6 1717/10/6
f 1711/10/6 1712/10/6 1717/10/6
f 1707/10/6 1708/10/6 1717/10/6
f 1709/10/6 1710/10/6 1717/10/6
f 1714/11/6 1715/11/6 1718/11/6
f 1717/10/6 1713/10/6 1718/10/6
f 1713/11/6 1714/11/6 1718/11/6
f 1718/11/6 1715/11/6 1719/11/6
f 1720/1/6 1721/1/6 1726/1/6
f 1726/1/6 1721/1/6 1727/1/6
f 1722/1/6 1723/1/6 1728/1/6
f 1728/1/6 1723/1/6 1729/1/6
f 1724/1/6 1725/1/6 1730/1/6
f 1730/1/6 1725/1/6 1731/1/6
f 1726/11/6 1727/11/6 1732/11/6
f 1732/11/6 1727/11/6 1733/11/6
f 1728/11/6 1729/11/6 1734/11/6
f 1734/11/6 1729/11/6 1735/11/6
f 1730/11/6 1731/11/6 1736/11/6
f 1736/11/6 1731/11/6 1737/11/6
